<svg width="524" height="110" viewBox="0 0 524 110" fill="none" xmlns="http://www.w3.org/2000/svg">
  <path
    d="M215.124 10.712C214.708 10.712 214.356 10.568 214.068 10.28C213.78 9.992 213.636 9.64 213.636 9.224C213.636 8.808 213.78 8.456 214.068 8.168C214.356 7.88 214.708 7.736 215.124 7.736C215.524 7.736 215.86 7.88 216.132 8.168C216.42 8.456 216.564 8.808 216.564 9.224C216.564 9.64 216.42 9.992 216.132 10.28C215.86 10.568 215.524 10.712 215.124 10.712ZM216.18 12.848V26H213.996V12.848H216.18ZM224.559 26.216C223.551 26.216 222.647 26.048 221.847 25.712C221.047 25.36 220.415 24.88 219.951 24.272C219.487 23.648 219.231 22.936 219.183 22.136H221.439C221.503 22.792 221.807 23.328 222.351 23.744C222.911 24.16 223.639 24.368 224.535 24.368C225.367 24.368 226.023 24.184 226.503 23.816C226.983 23.448 227.223 22.984 227.223 22.424C227.223 21.848 226.967 21.424 226.455 21.152C225.943 20.864 225.151 20.584 224.079 20.312C223.103 20.056 222.303 19.8 221.679 19.544C221.071 19.272 220.543 18.88 220.095 18.368C219.663 17.84 219.447 17.152 219.447 16.304C219.447 15.632 219.647 15.016 220.047 14.456C220.447 13.896 221.015 13.456 221.751 13.136C222.487 12.8 223.327 12.632 224.271 12.632C225.727 12.632 226.903 13 227.799 13.736C228.695 14.472 229.175 15.48 229.239 16.76H227.055C227.007 16.072 226.727 15.52 226.215 15.104C225.719 14.688 225.047 14.48 224.199 14.48C223.415 14.48 222.791 14.648 222.327 14.984C221.863 15.32 221.631 15.76 221.631 16.304C221.631 16.736 221.767 17.096 222.039 17.384C222.327 17.656 222.679 17.88 223.095 18.056C223.527 18.216 224.119 18.4 224.871 18.608C225.815 18.864 226.583 19.12 227.175 19.376C227.767 19.616 228.271 19.984 228.687 20.48C229.119 20.976 229.343 21.624 229.359 22.424C229.359 23.144 229.159 23.792 228.759 24.368C228.359 24.944 227.791 25.4 227.055 25.736C226.335 26.056 225.503 26.216 224.559 26.216ZM238.024 19.376C238.024 18.032 238.296 16.856 238.84 15.848C239.384 14.824 240.128 14.032 241.072 13.472C242.032 12.912 243.096 12.632 244.264 12.632C245.416 12.632 246.416 12.88 247.264 13.376C248.112 13.872 248.744 14.496 249.16 15.248V12.848H251.368V26H249.16V23.552C248.728 24.32 248.08 24.96 247.216 25.472C246.368 25.968 245.376 26.216 244.24 26.216C243.072 26.216 242.016 25.928 241.072 25.352C240.128 24.776 239.384 23.968 238.84 22.928C238.296 21.888 238.024 20.704 238.024 19.376ZM249.16 19.4C249.16 18.408 248.96 17.544 248.56 16.808C248.16 16.072 247.616 15.512 246.928 15.128C246.256 14.728 245.512 14.528 244.696 14.528C243.88 14.528 243.136 14.72 242.464 15.104C241.792 15.488 241.256 16.048 240.856 16.784C240.456 17.52 240.256 18.384 240.256 19.376C240.256 20.384 240.456 21.264 240.856 22.016C241.256 22.752 241.792 23.32 242.464 23.72C243.136 24.104 243.88 24.296 244.696 24.296C245.512 24.296 246.256 24.104 246.928 23.72C247.616 23.32 248.16 22.752 248.56 22.016C248.96 21.264 249.16 20.392 249.16 19.4ZM277.273 12.608C278.297 12.608 279.209 12.824 280.009 13.256C280.809 13.672 281.441 14.304 281.905 15.152C282.369 16 282.601 17.032 282.601 18.248V26H280.441V18.56C280.441 17.248 280.113 16.248 279.457 15.56C278.817 14.856 277.945 14.504 276.841 14.504C275.705 14.504 274.801 14.872 274.129 15.608C273.457 16.328 273.121 17.376 273.121 18.752V26H270.961V18.56C270.961 17.248 270.633 16.248 269.977 15.56C269.337 14.856 268.465 14.504 267.361 14.504C266.225 14.504 265.321 14.872 264.649 15.608C263.977 16.328 263.641 17.376 263.641 18.752V26H261.457V12.848H263.641V14.744C264.073 14.056 264.649 13.528 265.369 13.16C266.105 12.792 266.913 12.608 267.793 12.608C268.897 12.608 269.873 12.856 270.721 13.352C271.569 13.848 272.201 14.576 272.617 15.536C272.985 14.608 273.593 13.888 274.441 13.376C275.289 12.864 276.233 12.608 277.273 12.608ZM287.312 10.712C286.896 10.712 286.544 10.568 286.256 10.28C285.968 9.992 285.824 9.64 285.824 9.224C285.824 8.808 285.968 8.456 286.256 8.168C286.544 7.88 286.896 7.736 287.312 7.736C287.712 7.736 288.048 7.88 288.32 8.168C288.608 8.456 288.752 8.808 288.752 9.224C288.752 9.64 288.608 9.992 288.32 10.28C288.048 10.568 287.712 10.712 287.312 10.712ZM288.368 12.848V26H286.184V12.848H288.368ZM294.274 14.984C294.658 14.232 295.202 13.648 295.906 13.232C296.626 12.816 297.498 12.608 298.522 12.608V14.864H297.946C295.498 14.864 294.274 16.192 294.274 18.848V26H292.09V12.848H294.274V14.984ZM303.227 14.984C303.611 14.232 304.155 13.648 304.859 13.232C305.579 12.816 306.451 12.608 307.475 12.608V14.864H306.899C304.451 14.864 303.227 16.192 303.227 18.848V26H301.043V12.848H303.227V14.984ZM315.732 26.216C314.5 26.216 313.38 25.936 312.372 25.376C311.38 24.816 310.596 24.024 310.02 23C309.46 21.96 309.18 20.76 309.18 19.4C309.18 18.056 309.468 16.872 310.044 15.848C310.636 14.808 311.436 14.016 312.444 13.472C313.452 12.912 314.58 12.632 315.828 12.632C317.076 12.632 318.204 12.912 319.212 13.472C320.22 14.016 321.012 14.8 321.588 15.824C322.18 16.848 322.476 18.04 322.476 19.4C322.476 20.76 322.172 21.96 321.564 23C320.972 24.024 320.164 24.816 319.14 25.376C318.116 25.936 316.98 26.216 315.732 26.216ZM315.732 24.296C316.516 24.296 317.252 24.112 317.94 23.744C318.628 23.376 319.18 22.824 319.596 22.088C320.028 21.352 320.244 20.456 320.244 19.4C320.244 18.344 320.036 17.448 319.62 16.712C319.204 15.976 318.66 15.432 317.988 15.08C317.316 14.712 316.588 14.528 315.804 14.528C315.004 14.528 314.268 14.712 313.596 15.08C312.94 15.432 312.412 15.976 312.012 16.712C311.612 17.448 311.412 18.344 311.412 19.4C311.412 20.472 311.604 21.376 311.988 22.112C312.388 22.848 312.916 23.4 313.572 23.768C314.228 24.12 314.948 24.296 315.732 24.296ZM327.532 14.984C327.916 14.232 328.46 13.648 329.164 13.232C329.884 12.816 330.756 12.608 331.78 12.608V14.864H331.204C328.756 14.864 327.532 16.192 327.532 18.848V26H325.348V12.848H327.532V14.984ZM343.364 14.648V22.4C343.364 23.04 343.5 23.496 343.772 23.768C344.044 24.024 344.516 24.152 345.188 24.152H346.796V26H344.828C343.612 26 342.7 25.72 342.092 25.16C341.484 24.6 341.18 23.68 341.18 22.4V14.648H339.476V12.848H341.18V9.536H343.364V12.848H346.796V14.648H343.364ZM355.97 12.608C356.962 12.608 357.858 12.824 358.658 13.256C359.458 13.672 360.082 14.304 360.53 15.152C360.994 16 361.226 17.032 361.226 18.248V26H359.066V18.56C359.066 17.248 358.738 16.248 358.082 15.56C357.426 14.856 356.53 14.504 355.394 14.504C354.242 14.504 353.322 14.864 352.634 15.584C351.962 16.304 351.626 17.352 351.626 18.728V26H349.442V8.24H351.626V14.72C352.058 14.048 352.65 13.528 353.402 13.16C354.17 12.792 355.026 12.608 355.97 12.608ZM363.977 19.376C363.977 18.032 364.249 16.856 364.793 15.848C365.337 14.824 366.081 14.032 367.025 13.472C367.985 12.912 369.049 12.632 370.217 12.632C371.369 12.632 372.369 12.88 373.217 13.376C374.065 13.872 374.697 14.496 375.113 15.248V12.848H377.321V26H375.113V23.552C374.681 24.32 374.033 24.96 373.169 25.472C372.321 25.968 371.329 26.216 370.193 26.216C369.025 26.216 367.969 25.928 367.025 25.352C366.081 24.776 365.337 23.968 364.793 22.928C364.249 21.888 363.977 20.704 363.977 19.376ZM375.113 19.4C375.113 18.408 374.913 17.544 374.513 16.808C374.113 16.072 373.569 15.512 372.881 15.128C372.209 14.728 371.465 14.528 370.649 14.528C369.833 14.528 369.089 14.72 368.417 15.104C367.745 15.488 367.209 16.048 366.809 16.784C366.409 17.52 366.209 18.384 366.209 19.376C366.209 20.384 366.409 21.264 366.809 22.016C367.209 22.752 367.745 23.32 368.417 23.72C369.089 24.104 369.833 24.296 370.649 24.296C371.465 24.296 372.209 24.104 372.881 23.72C373.569 23.32 374.113 22.752 374.513 22.016C374.913 21.264 375.113 20.392 375.113 19.4ZM383.676 14.648V22.4C383.676 23.04 383.812 23.496 384.084 23.768C384.356 24.024 384.828 24.152 385.5 24.152H387.108V26H385.14C383.924 26 383.012 25.72 382.404 25.16C381.796 24.6 381.492 23.68 381.492 22.4V14.648H379.788V12.848H381.492V9.536H383.676V12.848H387.108V14.648H383.676ZM401.577 12.632C402.713 12.632 403.705 12.88 404.553 13.376C405.417 13.872 406.057 14.496 406.473 15.248V12.848H408.681V26.288C408.681 27.488 408.425 28.552 407.913 29.48C407.401 30.424 406.665 31.16 405.705 31.688C404.761 32.216 403.657 32.48 402.393 32.48C400.665 32.48 399.225 32.072 398.073 31.256C396.921 30.44 396.241 29.328 396.033 27.92H398.193C398.433 28.72 398.929 29.36 399.681 29.84C400.433 30.336 401.337 30.584 402.393 30.584C403.593 30.584 404.569 30.208 405.321 29.456C406.089 28.704 406.473 27.648 406.473 26.288V23.528C406.041 24.296 405.401 24.936 404.553 25.448C403.705 25.96 402.713 26.216 401.577 26.216C400.409 26.216 399.345 25.928 398.385 25.352C397.441 24.776 396.697 23.968 396.153 22.928C395.609 21.888 395.337 20.704 395.337 19.376C395.337 18.032 395.609 16.856 396.153 15.848C396.697 14.824 397.441 14.032 398.385 13.472C399.345 12.912 400.409 12.632 401.577 12.632ZM406.473 19.4C406.473 18.408 406.273 17.544 405.873 16.808C405.473 16.072 404.929 15.512 404.241 15.128C403.569 14.728 402.825 14.528 402.009 14.528C401.193 14.528 400.449 14.72 399.777 15.104C399.105 15.488 398.569 16.048 398.169 16.784C397.769 17.52 397.569 18.384 397.569 19.376C397.569 20.384 397.769 21.264 398.169 22.016C398.569 22.752 399.105 23.32 399.777 23.72C400.449 24.104 401.193 24.296 402.009 24.296C402.825 24.296 403.569 24.104 404.241 23.72C404.929 23.32 405.473 22.752 405.873 22.016C406.273 21.264 406.473 20.392 406.473 19.4ZM413.499 10.712C413.083 10.712 412.731 10.568 412.443 10.28C412.155 9.992 412.011 9.64 412.011 9.224C412.011 8.808 412.155 8.456 412.443 8.168C412.731 7.88 413.083 7.736 413.499 7.736C413.899 7.736 414.235 7.88 414.507 8.168C414.795 8.456 414.939 8.808 414.939 9.224C414.939 9.64 414.795 9.992 414.507 10.28C414.235 10.568 413.899 10.712 413.499 10.712ZM414.555 12.848V26H412.371V12.848H414.555ZM423.174 23.984L427.254 12.848H429.582L424.422 26H421.878L416.718 12.848H419.07L423.174 23.984ZM443.731 18.92C443.731 19.336 443.707 19.776 443.659 20.24H433.147C433.227 21.536 433.667 22.552 434.467 23.288C435.283 24.008 436.267 24.368 437.419 24.368C438.363 24.368 439.147 24.152 439.771 23.72C440.411 23.272 440.859 22.68 441.115 21.944H443.467C443.115 23.208 442.411 24.24 441.355 25.04C440.299 25.824 438.987 26.216 437.419 26.216C436.171 26.216 435.051 25.936 434.059 25.376C433.083 24.816 432.315 24.024 431.755 23C431.195 21.96 430.915 20.76 430.915 19.4C430.915 18.04 431.187 16.848 431.731 15.824C432.275 14.8 433.035 14.016 434.011 13.472C435.003 12.912 436.139 12.632 437.419 12.632C438.667 12.632 439.771 12.904 440.731 13.448C441.691 13.992 442.427 14.744 442.939 15.704C443.467 16.648 443.731 17.72 443.731 18.92ZM441.475 18.464C441.475 17.632 441.291 16.92 440.923 16.328C440.555 15.72 440.051 15.264 439.411 14.96C438.787 14.64 438.091 14.48 437.323 14.48C436.219 14.48 435.275 14.832 434.491 15.536C433.723 16.24 433.283 17.216 433.171 18.464H441.475ZM451.27 26.216C450.262 26.216 449.358 26.048 448.558 25.712C447.758 25.36 447.126 24.88 446.662 24.272C446.198 23.648 445.942 22.936 445.894 22.136H448.15C448.214 22.792 448.518 23.328 449.062 23.744C449.622 24.16 450.35 24.368 451.246 24.368C452.078 24.368 452.734 24.184 453.214 23.816C453.694 23.448 453.934 22.984 453.934 22.424C453.934 21.848 453.678 21.424 453.166 21.152C452.654 20.864 451.862 20.584 450.79 20.312C449.814 20.056 449.014 19.8 448.39 19.544C447.782 19.272 447.254 18.88 446.806 18.368C446.374 17.84 446.158 17.152 446.158 16.304C446.158 15.632 446.358 15.016 446.758 14.456C447.158 13.896 447.726 13.456 448.462 13.136C449.198 12.8 450.038 12.632 450.982 12.632C452.438 12.632 453.614 13 454.51 13.736C455.406 14.472 455.886 15.48 455.95 16.76H453.766C453.718 16.072 453.438 15.52 452.926 15.104C452.43 14.688 451.758 14.48 450.91 14.48C450.126 14.48 449.502 14.648 449.038 14.984C448.574 15.32 448.342 15.76 448.342 16.304C448.342 16.736 448.478 17.096 448.75 17.384C449.038 17.656 449.39 17.88 449.806 18.056C450.238 18.216 450.83 18.4 451.582 18.608C452.526 18.864 453.294 19.12 453.886 19.376C454.478 19.616 454.982 19.984 455.398 20.48C455.83 20.976 456.054 21.624 456.07 22.424C456.07 23.144 455.87 23.792 455.47 24.368C455.07 24.944 454.502 25.4 453.766 25.736C453.046 26.056 452.214 26.216 451.27 26.216ZM476.879 12.848L468.959 32.192H466.703L469.295 25.856L463.991 12.848H466.415L470.543 23.504L474.623 12.848H476.879ZM484.811 26.216C483.579 26.216 482.459 25.936 481.451 25.376C480.459 24.816 479.675 24.024 479.099 23C478.539 21.96 478.259 20.76 478.259 19.4C478.259 18.056 478.547 16.872 479.123 15.848C479.715 14.808 480.515 14.016 481.523 13.472C482.531 12.912 483.659 12.632 484.907 12.632C486.155 12.632 487.283 12.912 488.291 13.472C489.299 14.016 490.091 14.8 490.667 15.824C491.259 16.848 491.555 18.04 491.555 19.4C491.555 20.76 491.251 21.96 490.643 23C490.051 24.024 489.243 24.816 488.219 25.376C487.195 25.936 486.059 26.216 484.811 26.216ZM484.811 24.296C485.595 24.296 486.331 24.112 487.019 23.744C487.707 23.376 488.259 22.824 488.675 22.088C489.107 21.352 489.323 20.456 489.323 19.4C489.323 18.344 489.115 17.448 488.699 16.712C488.283 15.976 487.739 15.432 487.067 15.08C486.395 14.712 485.667 14.528 484.883 14.528C484.083 14.528 483.347 14.712 482.675 15.08C482.019 15.432 481.491 15.976 481.091 16.712C480.691 17.448 480.491 18.344 480.491 19.4C480.491 20.472 480.683 21.376 481.067 22.112C481.467 22.848 481.995 23.4 482.651 23.768C483.307 24.12 484.027 24.296 484.811 24.296ZM506.09 12.848V26H503.906V24.056C503.49 24.728 502.906 25.256 502.154 25.64C501.418 26.008 500.602 26.192 499.706 26.192C498.682 26.192 497.762 25.984 496.946 25.568C496.13 25.136 495.482 24.496 495.002 23.648C494.538 22.8 494.306 21.768 494.306 20.552V12.848H496.466V20.264C496.466 21.56 496.794 22.56 497.45 23.264C498.106 23.952 499.002 24.296 500.138 24.296C501.306 24.296 502.226 23.936 502.898 23.216C503.57 22.496 503.906 21.448 503.906 20.072V12.848H506.09ZM5.512 50.648V58.4C5.512 59.04 5.648 59.496 5.92 59.768C6.192 60.024 6.664 60.152 7.336 60.152H8.944V62H6.976C5.76 62 4.848 61.72 4.24 61.16C3.632 60.6 3.328 59.68 3.328 58.4V50.648H1.624V48.848H3.328V45.536H5.512V48.848H8.944V50.648H5.512ZM18.1182 48.608C19.1102 48.608 20.0062 48.824 20.8062 49.256C21.6062 49.672 22.2302 50.304 22.6782 51.152C23.1422 52 23.3742 53.032 23.3742 54.248V62H21.2142V54.56C21.2142 53.248 20.8862 52.248 20.2302 51.56C19.5742 50.856 18.6782 50.504 17.5422 50.504C16.3902 50.504 15.4702 50.864 14.7822 51.584C14.1102 52.304 13.7742 53.352 13.7742 54.728V62H11.5902V44.24H13.7742V50.72C14.2062 50.048 14.7982 49.528 15.5502 49.16C16.3182 48.792 17.1742 48.608 18.1182 48.608ZM38.9418 54.92C38.9418 55.336 38.9178 55.776 38.8698 56.24H28.3578C28.4378 57.536 28.8778 58.552 29.6778 59.288C30.4938 60.008 31.4778 60.368 32.6298 60.368C33.5738 60.368 34.3578 60.152 34.9818 59.72C35.6218 59.272 36.0698 58.68 36.3258 57.944H38.6778C38.3258 59.208 37.6218 60.24 36.5658 61.04C35.5098 61.824 34.1978 62.216 32.6298 62.216C31.3818 62.216 30.2618 61.936 29.2698 61.376C28.2938 60.816 27.5258 60.024 26.9658 59C26.4058 57.96 26.1258 56.76 26.1258 55.4C26.1258 54.04 26.3978 52.848 26.9418 51.824C27.4858 50.8 28.2458 50.016 29.2218 49.472C30.2138 48.912 31.3498 48.632 32.6298 48.632C33.8778 48.632 34.9818 48.904 35.9418 49.448C36.9018 49.992 37.6378 50.744 38.1498 51.704C38.6778 52.648 38.9418 53.72 38.9418 54.92ZM36.6858 54.464C36.6858 53.632 36.5018 52.92 36.1338 52.328C35.7658 51.72 35.2618 51.264 34.6218 50.96C33.9978 50.64 33.3018 50.48 32.5338 50.48C31.4298 50.48 30.4858 50.832 29.7018 51.536C28.9338 52.24 28.4938 53.216 28.3818 54.464H36.6858ZM50.407 51.272C50.839 50.52 51.479 49.896 52.327 49.4C53.191 48.888 54.191 48.632 55.327 48.632C56.495 48.632 57.551 48.912 58.495 49.472C59.455 50.032 60.207 50.824 60.751 51.848C61.295 52.856 61.567 54.032 61.567 55.376C61.567 56.704 61.295 57.888 60.751 58.928C60.207 59.968 59.455 60.776 58.495 61.352C57.551 61.928 56.495 62.216 55.327 62.216C54.207 62.216 53.215 61.968 52.351 61.472C51.503 60.96 50.855 60.328 50.407 59.576V68.24H48.223V48.848H50.407V51.272ZM59.335 55.376C59.335 54.384 59.135 53.52 58.735 52.784C58.335 52.048 57.791 51.488 57.103 51.104C56.431 50.72 55.687 50.528 54.871 50.528C54.071 50.528 53.327 50.728 52.639 51.128C51.967 51.512 51.423 52.08 51.007 52.832C50.607 53.568 50.407 54.424 50.407 55.4C50.407 56.392 50.607 57.264 51.007 58.016C51.423 58.752 51.967 59.32 52.639 59.72C53.327 60.104 54.071 60.296 54.871 60.296C55.687 60.296 56.431 60.104 57.103 59.72C57.791 59.32 58.335 58.752 58.735 58.016C59.135 57.264 59.335 56.384 59.335 55.376ZM70.1778 62.216C68.9458 62.216 67.8258 61.936 66.8178 61.376C65.8258 60.816 65.0418 60.024 64.4658 59C63.9058 57.96 63.6258 56.76 63.6258 55.4C63.6258 54.056 63.9138 52.872 64.4898 51.848C65.0818 50.808 65.8818 50.016 66.8898 49.472C67.8978 48.912 69.0258 48.632 70.2738 48.632C71.5218 48.632 72.6498 48.912 73.6578 49.472C74.6658 50.016 75.4578 50.8 76.0338 51.824C76.6258 52.848 76.9218 54.04 76.9218 55.4C76.9218 56.76 76.6178 57.96 76.0098 59C75.4178 60.024 74.6098 60.816 73.5858 61.376C72.5618 61.936 71.4258 62.216 70.1778 62.216ZM70.1778 60.296C70.9618 60.296 71.6978 60.112 72.3858 59.744C73.0738 59.376 73.6258 58.824 74.0418 58.088C74.4738 57.352 74.6898 56.456 74.6898 55.4C74.6898 54.344 74.4818 53.448 74.0658 52.712C73.6498 51.976 73.1058 51.432 72.4338 51.08C71.7618 50.712 71.0338 50.528 70.2498 50.528C69.4498 50.528 68.7138 50.712 68.0418 51.08C67.3858 51.432 66.8578 51.976 66.4578 52.712C66.0578 53.448 65.8578 54.344 65.8578 55.4C65.8578 56.472 66.0498 57.376 66.4338 58.112C66.8338 58.848 67.3618 59.4 68.0178 59.768C68.6738 60.12 69.3938 60.296 70.1778 60.296ZM84.4493 62.216C83.4413 62.216 82.5373 62.048 81.7373 61.712C80.9373 61.36 80.3053 60.88 79.8413 60.272C79.3773 59.648 79.1213 58.936 79.0733 58.136H81.3293C81.3933 58.792 81.6973 59.328 82.2413 59.744C82.8013 60.16 83.5293 60.368 84.4253 60.368C85.2573 60.368 85.9133 60.184 86.3933 59.816C86.8733 59.448 87.1133 58.984 87.1133 58.424C87.1133 57.848 86.8573 57.424 86.3453 57.152C85.8333 56.864 85.0413 56.584 83.9693 56.312C82.9933 56.056 82.1933 55.8 81.5693 55.544C80.9613 55.272 80.4333 54.88 79.9853 54.368C79.5533 53.84 79.3373 53.152 79.3373 52.304C79.3373 51.632 79.5373 51.016 79.9373 50.456C80.3373 49.896 80.9053 49.456 81.6413 49.136C82.3773 48.8 83.2173 48.632 84.1613 48.632C85.6173 48.632 86.7933 49 87.6893 49.736C88.5853 50.472 89.0653 51.48 89.1293 52.76H86.9453C86.8973 52.072 86.6173 51.52 86.1053 51.104C85.6093 50.688 84.9373 50.48 84.0893 50.48C83.3053 50.48 82.6813 50.648 82.2173 50.984C81.7533 51.32 81.5213 51.76 81.5213 52.304C81.5213 52.736 81.6573 53.096 81.9293 53.384C82.2173 53.656 82.5693 53.88 82.9853 54.056C83.4173 54.216 84.0093 54.4 84.7613 54.608C85.7053 54.864 86.4733 55.12 87.0653 55.376C87.6573 55.616 88.1613 55.984 88.5773 56.48C89.0093 56.976 89.2333 57.624 89.2493 58.424C89.2493 59.144 89.0493 59.792 88.6493 60.368C88.2493 60.944 87.6813 61.4 86.9453 61.736C86.2253 62.056 85.3933 62.216 84.4493 62.216ZM96.9884 62.216C95.9804 62.216 95.0764 62.048 94.2764 61.712C93.4764 61.36 92.8444 60.88 92.3804 60.272C91.9164 59.648 91.6604 58.936 91.6124 58.136H93.8684C93.9324 58.792 94.2364 59.328 94.7804 59.744C95.3404 60.16 96.0684 60.368 96.9644 60.368C97.7964 60.368 98.4524 60.184 98.9324 59.816C99.4124 59.448 99.6524 58.984 99.6524 58.424C99.6524 57.848 99.3964 57.424 98.8844 57.152C98.3724 56.864 97.5804 56.584 96.5084 56.312C95.5324 56.056 94.7324 55.8 94.1084 55.544C93.5004 55.272 92.9724 54.88 92.5244 54.368C92.0924 53.84 91.8764 53.152 91.8764 52.304C91.8764 51.632 92.0764 51.016 92.4764 50.456C92.8764 49.896 93.4444 49.456 94.1804 49.136C94.9164 48.8 95.7564 48.632 96.7004 48.632C98.1564 48.632 99.3324 49 100.228 49.736C101.124 50.472 101.604 51.48 101.668 52.76H99.4844C99.4364 52.072 99.1564 51.52 98.6444 51.104C98.1484 50.688 97.4764 50.48 96.6284 50.48C95.8444 50.48 95.2204 50.648 94.7564 50.984C94.2924 51.32 94.0604 51.76 94.0604 52.304C94.0604 52.736 94.1964 53.096 94.4684 53.384C94.7564 53.656 95.1084 53.88 95.5244 54.056C95.9564 54.216 96.5484 54.4 97.3004 54.608C98.2444 54.864 99.0124 55.12 99.6044 55.376C100.196 55.616 100.7 55.984 101.116 56.48C101.548 56.976 101.772 57.624 101.788 58.424C101.788 59.144 101.588 59.792 101.188 60.368C100.788 60.944 100.22 61.4 99.4844 61.736C98.7644 62.056 97.9324 62.216 96.9884 62.216ZM105.999 46.712C105.583 46.712 105.231 46.568 104.943 46.28C104.655 45.992 104.511 45.64 104.511 45.224C104.511 44.808 104.655 44.456 104.943 44.168C105.231 43.88 105.583 43.736 105.999 43.736C106.399 43.736 106.735 43.88 107.007 44.168C107.295 44.456 107.439 44.808 107.439 45.224C107.439 45.64 107.295 45.992 107.007 46.28C106.735 46.568 106.399 46.712 105.999 46.712ZM107.055 48.848V62H104.871V48.848H107.055ZM112.962 51.296C113.41 50.512 114.066 49.872 114.93 49.376C115.794 48.88 116.778 48.632 117.882 48.632C119.066 48.632 120.13 48.912 121.074 49.472C122.018 50.032 122.762 50.824 123.306 51.848C123.85 52.856 124.122 54.032 124.122 55.376C124.122 56.704 123.85 57.888 123.306 58.928C122.762 59.968 122.01 60.776 121.05 61.352C120.106 61.928 119.05 62.216 117.882 62.216C116.746 62.216 115.746 61.968 114.882 61.472C114.034 60.976 113.394 60.344 112.962 59.576V62H110.778V44.24H112.962V51.296ZM121.89 55.376C121.89 54.384 121.69 53.52 121.29 52.784C120.89 52.048 120.346 51.488 119.658 51.104C118.986 50.72 118.242 50.528 117.426 50.528C116.626 50.528 115.882 50.728 115.194 51.128C114.522 51.512 113.978 52.08 113.562 52.832C113.162 53.568 112.962 54.424 112.962 55.4C112.962 56.392 113.162 57.264 113.562 58.016C113.978 58.752 114.522 59.32 115.194 59.72C115.882 60.104 116.626 60.296 117.426 60.296C118.242 60.296 118.986 60.104 119.658 59.72C120.346 59.32 120.89 58.752 121.29 58.016C121.69 57.264 121.89 56.384 121.89 55.376ZM128.124 46.712C127.708 46.712 127.356 46.568 127.068 46.28C126.78 45.992 126.636 45.64 126.636 45.224C126.636 44.808 126.78 44.456 127.068 44.168C127.356 43.88 127.708 43.736 128.124 43.736C128.524 43.736 128.86 43.88 129.132 44.168C129.42 44.456 129.564 44.808 129.564 45.224C129.564 45.64 129.42 45.992 129.132 46.28C128.86 46.568 128.524 46.712 128.124 46.712ZM129.18 48.848V62H126.996V48.848H129.18ZM135.087 44.24V62H132.903V44.24H135.087ZM139.937 46.712C139.521 46.712 139.169 46.568 138.881 46.28C138.593 45.992 138.449 45.64 138.449 45.224C138.449 44.808 138.593 44.456 138.881 44.168C139.169 43.88 139.521 43.736 139.937 43.736C140.337 43.736 140.673 43.88 140.945 44.168C141.233 44.456 141.377 44.808 141.377 45.224C141.377 45.64 141.233 45.992 140.945 46.28C140.673 46.568 140.337 46.712 139.937 46.712ZM140.993 48.848V62H138.809V48.848H140.993ZM147.379 50.648V58.4C147.379 59.04 147.515 59.496 147.787 59.768C148.059 60.024 148.531 60.152 149.203 60.152H150.811V62H148.843C147.627 62 146.715 61.72 146.107 61.16C145.499 60.6 145.195 59.68 145.195 58.4V50.648H143.491V48.848H145.195V45.536H147.379V48.848H150.811V50.648H147.379ZM164.785 48.848L156.865 68.192H154.609L157.201 61.856L151.897 48.848H154.321L158.449 59.504L162.529 48.848H164.785ZM176.043 50.648V58.4C176.043 59.04 176.179 59.496 176.451 59.768C176.723 60.024 177.195 60.152 177.867 60.152H179.475V62H177.507C176.291 62 175.379 61.72 174.771 61.16C174.163 60.6 173.859 59.68 173.859 58.4V50.648H172.155V48.848H173.859V45.536H176.043V48.848H179.475V50.648H176.043ZM187.857 62.216C186.625 62.216 185.505 61.936 184.497 61.376C183.505 60.816 182.721 60.024 182.145 59C181.585 57.96 181.305 56.76 181.305 55.4C181.305 54.056 181.593 52.872 182.169 51.848C182.761 50.808 183.561 50.016 184.569 49.472C185.577 48.912 186.705 48.632 187.953 48.632C189.201 48.632 190.329 48.912 191.337 49.472C192.345 50.016 193.137 50.8 193.713 51.824C194.305 52.848 194.601 54.04 194.601 55.4C194.601 56.76 194.297 57.96 193.689 59C193.097 60.024 192.289 60.816 191.265 61.376C190.241 61.936 189.105 62.216 187.857 62.216ZM187.857 60.296C188.641 60.296 189.377 60.112 190.065 59.744C190.753 59.376 191.305 58.824 191.721 58.088C192.153 57.352 192.369 56.456 192.369 55.4C192.369 54.344 192.161 53.448 191.745 52.712C191.329 51.976 190.785 51.432 190.113 51.08C189.441 50.712 188.713 50.528 187.929 50.528C187.129 50.528 186.393 50.712 185.721 51.08C185.065 51.432 184.537 51.976 184.137 52.712C183.737 53.448 183.537 54.344 183.537 55.4C183.537 56.472 183.729 57.376 184.113 58.112C184.513 58.848 185.041 59.4 185.697 59.768C186.353 60.12 187.073 60.296 187.857 60.296ZM203.055 55.4C203.055 54.04 203.327 52.856 203.871 51.848C204.415 50.824 205.167 50.032 206.127 49.472C207.103 48.912 208.215 48.632 209.463 48.632C211.079 48.632 212.407 49.024 213.447 49.808C214.503 50.592 215.199 51.68 215.535 53.072H213.183C212.959 52.272 212.519 51.64 211.863 51.176C211.223 50.712 210.423 50.48 209.463 50.48C208.215 50.48 207.207 50.912 206.439 51.776C205.671 52.624 205.287 53.832 205.287 55.4C205.287 56.984 205.671 58.208 206.439 59.072C207.207 59.936 208.215 60.368 209.463 60.368C210.423 60.368 211.223 60.144 211.863 59.696C212.503 59.248 212.943 58.608 213.183 57.776H215.535C215.183 59.12 214.479 60.2 213.423 61.016C212.367 61.816 211.047 62.216 209.463 62.216C208.215 62.216 207.103 61.936 206.127 61.376C205.167 60.816 204.415 60.024 203.871 59C203.327 57.976 203.055 56.776 203.055 55.4ZM224.186 62.216C222.954 62.216 221.834 61.936 220.826 61.376C219.834 60.816 219.05 60.024 218.474 59C217.914 57.96 217.634 56.76 217.634 55.4C217.634 54.056 217.922 52.872 218.498 51.848C219.09 50.808 219.89 50.016 220.898 49.472C221.906 48.912 223.034 48.632 224.282 48.632C225.53 48.632 226.658 48.912 227.666 49.472C228.674 50.016 229.466 50.8 230.042 51.824C230.634 52.848 230.93 54.04 230.93 55.4C230.93 56.76 230.626 57.96 230.018 59C229.426 60.024 228.618 60.816 227.594 61.376C226.57 61.936 225.434 62.216 224.186 62.216ZM224.186 60.296C224.97 60.296 225.706 60.112 226.394 59.744C227.082 59.376 227.634 58.824 228.05 58.088C228.482 57.352 228.698 56.456 228.698 55.4C228.698 54.344 228.49 53.448 228.074 52.712C227.658 51.976 227.114 51.432 226.442 51.08C225.77 50.712 225.042 50.528 224.258 50.528C223.458 50.528 222.722 50.712 222.05 51.08C221.394 51.432 220.866 51.976 220.466 52.712C220.066 53.448 219.866 54.344 219.866 55.4C219.866 56.472 220.058 57.376 220.442 58.112C220.842 58.848 221.37 59.4 222.026 59.768C222.682 60.12 223.402 60.296 224.186 60.296ZM249.617 48.608C250.641 48.608 251.553 48.824 252.353 49.256C253.153 49.672 253.785 50.304 254.249 51.152C254.713 52 254.945 53.032 254.945 54.248V62H252.785V54.56C252.785 53.248 252.457 52.248 251.801 51.56C251.161 50.856 250.289 50.504 249.185 50.504C248.049 50.504 247.145 50.872 246.473 51.608C245.801 52.328 245.465 53.376 245.465 54.752V62H243.305V54.56C243.305 53.248 242.977 52.248 242.321 51.56C241.681 50.856 240.809 50.504 239.705 50.504C238.569 50.504 237.665 50.872 236.993 51.608C236.321 52.328 235.985 53.376 235.985 54.752V62H233.801V48.848H235.985V50.744C236.417 50.056 236.993 49.528 237.713 49.16C238.449 48.792 239.257 48.608 240.137 48.608C241.241 48.608 242.217 48.856 243.065 49.352C243.913 49.848 244.545 50.576 244.961 51.536C245.329 50.608 245.937 49.888 246.785 49.376C247.633 48.864 248.577 48.608 249.617 48.608ZM260.712 51.272C261.144 50.52 261.784 49.896 262.632 49.4C263.496 48.888 264.496 48.632 265.632 48.632C266.8 48.632 267.856 48.912 268.8 49.472C269.76 50.032 270.512 50.824 271.056 51.848C271.6 52.856 271.872 54.032 271.872 55.376C271.872 56.704 271.6 57.888 271.056 58.928C270.512 59.968 269.76 60.776 268.8 61.352C267.856 61.928 266.8 62.216 265.632 62.216C264.512 62.216 263.52 61.968 262.656 61.472C261.808 60.96 261.16 60.328 260.712 59.576V68.24H258.528V48.848H260.712V51.272ZM269.64 55.376C269.64 54.384 269.44 53.52 269.04 52.784C268.64 52.048 268.096 51.488 267.408 51.104C266.736 50.72 265.992 50.528 265.176 50.528C264.376 50.528 263.632 50.728 262.944 51.128C262.272 51.512 261.728 52.08 261.312 52.832C260.912 53.568 260.712 54.424 260.712 55.4C260.712 56.392 260.912 57.264 261.312 58.016C261.728 58.752 262.272 59.32 262.944 59.72C263.632 60.104 264.376 60.296 265.176 60.296C265.992 60.296 266.736 60.104 267.408 59.72C268.096 59.32 268.64 58.752 269.04 58.016C269.44 57.264 269.64 56.384 269.64 55.376ZM273.93 55.376C273.93 54.032 274.202 52.856 274.746 51.848C275.29 50.824 276.034 50.032 276.978 49.472C277.938 48.912 279.002 48.632 280.17 48.632C281.322 48.632 282.322 48.88 283.17 49.376C284.018 49.872 284.65 50.496 285.066 51.248V48.848H287.274V62H285.066V59.552C284.634 60.32 283.986 60.96 283.122 61.472C282.274 61.968 281.282 62.216 280.146 62.216C278.978 62.216 277.922 61.928 276.978 61.352C276.034 60.776 275.29 59.968 274.746 58.928C274.202 57.888 273.93 56.704 273.93 55.376ZM285.066 55.4C285.066 54.408 284.866 53.544 284.466 52.808C284.066 52.072 283.522 51.512 282.834 51.128C282.162 50.728 281.418 50.528 280.602 50.528C279.786 50.528 279.042 50.72 278.37 51.104C277.698 51.488 277.162 52.048 276.762 52.784C276.362 53.52 276.162 54.384 276.162 55.376C276.162 56.384 276.362 57.264 276.762 58.016C277.162 58.752 277.698 59.32 278.37 59.72C279.042 60.104 279.786 60.296 280.602 60.296C281.418 60.296 282.162 60.104 282.834 59.72C283.522 59.32 284.066 58.752 284.466 58.016C284.866 57.264 285.066 56.392 285.066 55.4ZM293.149 50.984C293.533 50.232 294.077 49.648 294.781 49.232C295.501 48.816 296.373 48.608 297.397 48.608V50.864H296.821C294.373 50.864 293.149 52.192 293.149 54.848V62H290.965V48.848H293.149V50.984ZM311.918 54.92C311.918 55.336 311.894 55.776 311.846 56.24H301.334C301.414 57.536 301.854 58.552 302.654 59.288C303.47 60.008 304.454 60.368 305.606 60.368C306.55 60.368 307.334 60.152 307.958 59.72C308.598 59.272 309.046 58.68 309.302 57.944H311.654C311.302 59.208 310.598 60.24 309.542 61.04C308.486 61.824 307.174 62.216 305.606 62.216C304.358 62.216 303.238 61.936 302.246 61.376C301.27 60.816 300.502 60.024 299.942 59C299.382 57.96 299.102 56.76 299.102 55.4C299.102 54.04 299.374 52.848 299.918 51.824C300.462 50.8 301.222 50.016 302.198 49.472C303.19 48.912 304.326 48.632 305.606 48.632C306.854 48.632 307.958 48.904 308.918 49.448C309.878 49.992 310.614 50.744 311.126 51.704C311.654 52.648 311.918 53.72 311.918 54.92ZM309.662 54.464C309.662 53.632 309.478 52.92 309.11 52.328C308.742 51.72 308.238 51.264 307.598 50.96C306.974 50.64 306.278 50.48 305.51 50.48C304.406 50.48 303.462 50.832 302.678 51.536C301.91 52.24 301.47 53.216 301.358 54.464H309.662ZM332.528 48.848L324.608 68.192H322.352L324.944 61.856L319.64 48.848H322.064L326.192 59.504L330.272 48.848H332.528ZM340.459 62.216C339.227 62.216 338.107 61.936 337.099 61.376C336.107 60.816 335.323 60.024 334.747 59C334.187 57.96 333.907 56.76 333.907 55.4C333.907 54.056 334.195 52.872 334.771 51.848C335.363 50.808 336.163 50.016 337.171 49.472C338.179 48.912 339.307 48.632 340.555 48.632C341.803 48.632 342.931 48.912 343.939 49.472C344.947 50.016 345.739 50.8 346.315 51.824C346.907 52.848 347.203 54.04 347.203 55.4C347.203 56.76 346.899 57.96 346.291 59C345.699 60.024 344.891 60.816 343.867 61.376C342.843 61.936 341.707 62.216 340.459 62.216ZM340.459 60.296C341.243 60.296 341.979 60.112 342.667 59.744C343.355 59.376 343.907 58.824 344.323 58.088C344.755 57.352 344.971 56.456 344.971 55.4C344.971 54.344 344.763 53.448 344.347 52.712C343.931 51.976 343.387 51.432 342.715 51.08C342.043 50.712 341.315 50.528 340.531 50.528C339.731 50.528 338.995 50.712 338.323 51.08C337.667 51.432 337.139 51.976 336.739 52.712C336.339 53.448 336.139 54.344 336.139 55.4C336.139 56.472 336.331 57.376 336.715 58.112C337.115 58.848 337.643 59.4 338.299 59.768C338.955 60.12 339.675 60.296 340.459 60.296ZM361.739 48.848V62H359.555V60.056C359.139 60.728 358.555 61.256 357.803 61.64C357.067 62.008 356.251 62.192 355.355 62.192C354.331 62.192 353.411 61.984 352.595 61.568C351.779 61.136 351.131 60.496 350.651 59.648C350.187 58.8 349.955 57.768 349.955 56.552V48.848H352.115V56.264C352.115 57.56 352.443 58.56 353.099 59.264C353.755 59.952 354.651 60.296 355.787 60.296C356.955 60.296 357.875 59.936 358.547 59.216C359.219 58.496 359.555 57.448 359.555 56.072V48.848H361.739ZM367.61 50.984C367.994 50.232 368.538 49.648 369.242 49.232C369.962 48.816 370.834 48.608 371.858 48.608V50.864H371.282C368.834 50.864 367.61 52.192 367.61 54.848V62H365.426V48.848H367.61V50.984ZM379.035 62.216C378.027 62.216 377.123 62.048 376.323 61.712C375.523 61.36 374.891 60.88 374.427 60.272C373.963 59.648 373.707 58.936 373.659 58.136H375.915C375.979 58.792 376.283 59.328 376.827 59.744C377.387 60.16 378.115 60.368 379.011 60.368C379.843 60.368 380.499 60.184 380.979 59.816C381.459 59.448 381.699 58.984 381.699 58.424C381.699 57.848 381.443 57.424 380.931 57.152C380.419 56.864 379.627 56.584 378.555 56.312C377.579 56.056 376.779 55.8 376.155 55.544C375.547 55.272 375.019 54.88 374.571 54.368C374.139 53.84 373.923 53.152 373.923 52.304C373.923 51.632 374.123 51.016 374.523 50.456C374.923 49.896 375.491 49.456 376.227 49.136C376.963 48.8 377.803 48.632 378.747 48.632C380.203 48.632 381.379 49 382.275 49.736C383.171 50.472 383.651 51.48 383.715 52.76H381.531C381.483 52.072 381.203 51.52 380.691 51.104C380.195 50.688 379.523 50.48 378.675 50.48C377.891 50.48 377.267 50.648 376.803 50.984C376.339 51.32 376.107 51.76 376.107 52.304C376.107 52.736 376.243 53.096 376.515 53.384C376.803 53.656 377.155 53.88 377.571 54.056C378.003 54.216 378.595 54.4 379.347 54.608C380.291 54.864 381.059 55.12 381.651 55.376C382.243 55.616 382.747 55.984 383.163 56.48C383.595 56.976 383.819 57.624 383.835 58.424C383.835 59.144 383.635 59.792 383.235 60.368C382.835 60.944 382.267 61.4 381.531 61.736C380.811 62.056 379.979 62.216 379.035 62.216ZM398.918 54.92C398.918 55.336 398.894 55.776 398.846 56.24H388.334C388.414 57.536 388.854 58.552 389.654 59.288C390.47 60.008 391.454 60.368 392.606 60.368C393.55 60.368 394.334 60.152 394.958 59.72C395.598 59.272 396.046 58.68 396.302 57.944H398.654C398.302 59.208 397.598 60.24 396.542 61.04C395.486 61.824 394.174 62.216 392.606 62.216C391.358 62.216 390.238 61.936 389.246 61.376C388.27 60.816 387.502 60.024 386.942 59C386.382 57.96 386.102 56.76 386.102 55.4C386.102 54.04 386.374 52.848 386.918 51.824C387.462 50.8 388.222 50.016 389.198 49.472C390.19 48.912 391.326 48.632 392.606 48.632C393.854 48.632 394.958 48.904 395.918 49.448C396.878 49.992 397.614 50.744 398.126 51.704C398.654 52.648 398.918 53.72 398.918 54.92ZM396.662 54.464C396.662 53.632 396.478 52.92 396.11 52.328C395.742 51.72 395.238 51.264 394.598 50.96C393.974 50.64 393.278 50.48 392.51 50.48C391.406 50.48 390.462 50.832 389.678 51.536C388.91 52.24 388.47 53.216 388.358 54.464H396.662ZM403.985 44.24V62H401.801V44.24H403.985ZM413.059 50.648H410.299V62H408.115V50.648H406.411V48.848H408.115V47.912C408.115 46.44 408.491 45.368 409.243 44.696C410.011 44.008 411.235 43.664 412.915 43.664V45.488C411.955 45.488 411.275 45.68 410.875 46.064C410.491 46.432 410.299 47.048 410.299 47.912V48.848H413.059V50.648ZM439.524 48.848L435.42 62H433.164L429.996 51.56L426.828 62H424.572L420.444 48.848H422.676L425.7 59.888L428.964 48.848H431.196L434.388 59.912L437.364 48.848H439.524ZM442.82 46.712C442.404 46.712 442.052 46.568 441.764 46.28C441.476 45.992 441.332 45.64 441.332 45.224C441.332 44.808 441.476 44.456 441.764 44.168C442.052 43.88 442.404 43.736 442.82 43.736C443.22 43.736 443.556 43.88 443.828 44.168C444.116 44.456 444.26 44.808 444.26 45.224C444.26 45.64 444.116 45.992 443.828 46.28C443.556 46.568 443.22 46.712 442.82 46.712ZM443.876 48.848V62H441.692V48.848H443.876ZM450.262 50.648V58.4C450.262 59.04 450.398 59.496 450.67 59.768C450.942 60.024 451.414 60.152 452.086 60.152H453.694V62H451.726C450.51 62 449.598 61.72 448.99 61.16C448.382 60.6 448.078 59.68 448.078 58.4V50.648H446.374V48.848H448.078V45.536H450.262V48.848H453.694V50.648H450.262ZM462.868 48.608C463.86 48.608 464.756 48.824 465.556 49.256C466.356 49.672 466.98 50.304 467.428 51.152C467.892 52 468.124 53.032 468.124 54.248V62H465.964V54.56C465.964 53.248 465.636 52.248 464.98 51.56C464.324 50.856 463.428 50.504 462.292 50.504C461.14 50.504 460.22 50.864 459.532 51.584C458.86 52.304 458.524 53.352 458.524 54.728V62H456.34V44.24H458.524V50.72C458.956 50.048 459.548 49.528 460.3 49.16C461.068 48.792 461.924 48.608 462.868 48.608ZM8.584 98.216C7.352 98.216 6.232 97.936 5.224 97.376C4.232 96.816 3.448 96.024 2.872 95C2.312 93.96 2.032 92.76 2.032 91.4C2.032 90.056 2.32 88.872 2.896 87.848C3.488 86.808 4.288 86.016 5.296 85.472C6.304 84.912 7.432 84.632 8.68 84.632C9.928 84.632 11.056 84.912 12.064 85.472C13.072 86.016 13.864 86.8 14.44 87.824C15.032 88.848 15.328 90.04 15.328 91.4C15.328 92.76 15.024 93.96 14.416 95C13.824 96.024 13.016 96.816 11.992 97.376C10.968 97.936 9.832 98.216 8.584 98.216ZM8.584 96.296C9.368 96.296 10.104 96.112 10.792 95.744C11.48 95.376 12.032 94.824 12.448 94.088C12.88 93.352 13.096 92.456 13.096 91.4C13.096 90.344 12.888 89.448 12.472 88.712C12.056 87.976 11.512 87.432 10.84 87.08C10.168 86.712 9.44 86.528 8.656 86.528C7.856 86.528 7.12 86.712 6.448 87.08C5.792 87.432 5.264 87.976 4.864 88.712C4.464 89.448 4.264 90.344 4.264 91.4C4.264 92.472 4.456 93.376 4.84 94.112C5.24 94.848 5.768 95.4 6.424 95.768C7.08 96.12 7.8 96.296 8.584 96.296ZM20.8636 86.648V94.4C20.8636 95.04 20.9996 95.496 21.2716 95.768C21.5436 96.024 22.0156 96.152 22.6876 96.152H24.2956V98H22.3276C21.1116 98 20.1996 97.72 19.5916 97.16C18.9836 96.6 18.6796 95.68 18.6796 94.4V86.648H16.9756V84.848H18.6796V81.536H20.8636V84.848H24.2956V86.648H20.8636ZM33.4698 84.608C34.4618 84.608 35.3578 84.824 36.1578 85.256C36.9578 85.672 37.5818 86.304 38.0298 87.152C38.4938 88 38.7258 89.032 38.7258 90.248V98H36.5658V90.56C36.5658 89.248 36.2378 88.248 35.5818 87.56C34.9258 86.856 34.0298 86.504 32.8938 86.504C31.7418 86.504 30.8218 86.864 30.1338 87.584C29.4618 88.304 29.1258 89.352 29.1258 90.728V98H26.9418V80.24H29.1258V86.72C29.5578 86.048 30.1498 85.528 30.9018 85.16C31.6698 84.792 32.5258 84.608 33.4698 84.608ZM54.2933 90.92C54.2933 91.336 54.2693 91.776 54.2213 92.24H43.7093C43.7893 93.536 44.2293 94.552 45.0293 95.288C45.8453 96.008 46.8293 96.368 47.9813 96.368C48.9253 96.368 49.7093 96.152 50.3333 95.72C50.9733 95.272 51.4213 94.68 51.6773 93.944H54.0293C53.6773 95.208 52.9733 96.24 51.9173 97.04C50.8613 97.824 49.5493 98.216 47.9813 98.216C46.7333 98.216 45.6133 97.936 44.6213 97.376C43.6453 96.816 42.8773 96.024 42.3173 95C41.7573 93.96 41.4773 92.76 41.4773 91.4C41.4773 90.04 41.7493 88.848 42.2933 87.824C42.8373 86.8 43.5973 86.016 44.5733 85.472C45.5653 84.912 46.7013 84.632 47.9813 84.632C49.2293 84.632 50.3333 84.904 51.2933 85.448C52.2533 85.992 52.9893 86.744 53.5013 87.704C54.0293 88.648 54.2933 89.72 54.2933 90.92ZM52.0373 90.464C52.0373 89.632 51.8533 88.92 51.4853 88.328C51.1173 87.72 50.6133 87.264 49.9733 86.96C49.3493 86.64 48.6533 86.48 47.8853 86.48C46.7813 86.48 45.8373 86.832 45.0533 87.536C44.2853 88.24 43.8453 89.216 43.7333 90.464H52.0373ZM59.3601 86.984C59.7441 86.232 60.2881 85.648 60.9921 85.232C61.7121 84.816 62.5841 84.608 63.6081 84.608V86.864H63.0321C60.5841 86.864 59.3601 88.192 59.3601 90.848V98H57.1761V84.848H59.3601V86.984ZM79.0557 84.608C80.0477 84.608 80.9437 84.824 81.7437 85.256C82.5437 85.672 83.1677 86.304 83.6157 87.152C84.0797 88 84.3117 89.032 84.3117 90.248V98H82.1517V90.56C82.1517 89.248 81.8237 88.248 81.1677 87.56C80.5117 86.856 79.6157 86.504 78.4797 86.504C77.3277 86.504 76.4077 86.864 75.7197 87.584C75.0477 88.304 74.7117 89.352 74.7117 90.728V98H72.5277V80.24H74.7117V86.72C75.1437 86.048 75.7357 85.528 76.4877 85.16C77.2557 84.792 78.1117 84.608 79.0557 84.608ZM99.5433 84.848V98H97.3593V96.056C96.9433 96.728 96.3593 97.256 95.6073 97.64C94.8713 98.008 94.0553 98.192 93.1593 98.192C92.1353 98.192 91.2153 97.984 90.3993 97.568C89.5833 97.136 88.9353 96.496 88.4553 95.648C87.9913 94.8 87.7593 93.768 87.7593 92.552V84.848H89.9193V92.264C89.9193 93.56 90.2473 94.56 90.9033 95.264C91.5593 95.952 92.4553 96.296 93.5913 96.296C94.7593 96.296 95.6793 95.936 96.3513 95.216C97.0233 94.496 97.3593 93.448 97.3593 92.072V84.848H99.5433ZM119.047 84.608C120.071 84.608 120.983 84.824 121.783 85.256C122.583 85.672 123.215 86.304 123.679 87.152C124.143 88 124.375 89.032 124.375 90.248V98H122.215V90.56C122.215 89.248 121.887 88.248 121.231 87.56C120.591 86.856 119.719 86.504 118.615 86.504C117.479 86.504 116.575 86.872 115.903 87.608C115.231 88.328 114.895 89.376 114.895 90.752V98H112.735V90.56C112.735 89.248 112.407 88.248 111.751 87.56C111.111 86.856 110.239 86.504 109.135 86.504C107.999 86.504 107.095 86.872 106.423 87.608C105.751 88.328 105.415 89.376 105.415 90.752V98H103.231V84.848H105.415V86.744C105.847 86.056 106.423 85.528 107.143 85.16C107.879 84.792 108.687 84.608 109.567 84.608C110.671 84.608 111.647 84.856 112.495 85.352C113.343 85.848 113.975 86.576 114.391 87.536C114.759 86.608 115.367 85.888 116.215 85.376C117.063 84.864 118.007 84.608 119.047 84.608ZM127.141 91.376C127.141 90.032 127.413 88.856 127.957 87.848C128.501 86.824 129.245 86.032 130.189 85.472C131.149 84.912 132.213 84.632 133.381 84.632C134.533 84.632 135.533 84.88 136.381 85.376C137.229 85.872 137.861 86.496 138.277 87.248V84.848H140.485V98H138.277V95.552C137.845 96.32 137.197 96.96 136.333 97.472C135.485 97.968 134.493 98.216 133.357 98.216C132.189 98.216 131.133 97.928 130.189 97.352C129.245 96.776 128.501 95.968 127.957 94.928C127.413 93.888 127.141 92.704 127.141 91.376ZM138.277 91.4C138.277 90.408 138.077 89.544 137.677 88.808C137.277 88.072 136.733 87.512 136.045 87.128C135.373 86.728 134.629 86.528 133.813 86.528C132.997 86.528 132.253 86.72 131.581 87.104C130.909 87.488 130.373 88.048 129.973 88.784C129.573 89.52 129.373 90.384 129.373 91.376C129.373 92.384 129.573 93.264 129.973 94.016C130.373 94.752 130.909 95.32 131.581 95.72C132.253 96.104 132.997 96.296 133.813 96.296C134.629 96.296 135.373 96.104 136.045 95.72C136.733 95.32 137.277 94.752 137.677 94.016C138.077 93.264 138.277 92.392 138.277 91.4ZM150.584 84.608C152.184 84.608 153.48 85.096 154.472 86.072C155.464 87.032 155.96 88.424 155.96 90.248V98H153.8V90.56C153.8 89.248 153.472 88.248 152.816 87.56C152.16 86.856 151.264 86.504 150.128 86.504C148.976 86.504 148.056 86.864 147.368 87.584C146.696 88.304 146.36 89.352 146.36 90.728V98H144.176V84.848H146.36V86.72C146.792 86.048 147.376 85.528 148.112 85.16C148.864 84.792 149.688 84.608 150.584 84.608ZM164.184 98.216C163.176 98.216 162.272 98.048 161.472 97.712C160.672 97.36 160.04 96.88 159.576 96.272C159.112 95.648 158.856 94.936 158.808 94.136H161.064C161.128 94.792 161.432 95.328 161.976 95.744C162.536 96.16 163.264 96.368 164.16 96.368C164.992 96.368 165.648 96.184 166.128 95.816C166.608 95.448 166.848 94.984 166.848 94.424C166.848 93.848 166.592 93.424 166.08 93.152C165.568 92.864 164.776 92.584 163.704 92.312C162.728 92.056 161.928 91.8 161.304 91.544C160.696 91.272 160.168 90.88 159.72 90.368C159.288 89.84 159.072 89.152 159.072 88.304C159.072 87.632 159.272 87.016 159.672 86.456C160.072 85.896 160.64 85.456 161.376 85.136C162.112 84.8 162.952 84.632 163.896 84.632C165.352 84.632 166.528 85 167.424 85.736C168.32 86.472 168.8 87.48 168.864 88.76H166.68C166.632 88.072 166.352 87.52 165.84 87.104C165.344 86.688 164.672 86.48 163.824 86.48C163.04 86.48 162.416 86.648 161.952 86.984C161.488 87.32 161.256 87.76 161.256 88.304C161.256 88.736 161.392 89.096 161.664 89.384C161.952 89.656 162.304 89.88 162.72 90.056C163.152 90.216 163.744 90.4 164.496 90.608C165.44 90.864 166.208 91.12 166.8 91.376C167.392 91.616 167.896 91.984 168.312 92.48C168.744 92.976 168.968 93.624 168.984 94.424C168.984 95.144 168.784 95.792 168.384 96.368C167.984 96.944 167.416 97.4 166.68 97.736C165.96 98.056 165.128 98.216 164.184 98.216ZM172.763 98.144C172.347 98.144 171.995 98 171.707 97.712C171.419 97.424 171.275 97.072 171.275 96.656C171.275 96.24 171.419 95.888 171.707 95.6C171.995 95.312 172.347 95.168 172.763 95.168C173.163 95.168 173.499 95.312 173.771 95.6C174.059 95.888 174.203 96.24 174.203 96.656C174.203 97.072 174.059 97.424 173.771 97.712C173.499 98 173.163 98.144 172.763 98.144Z"
    fill="white" />
  <path
    d="M122.013 17.8213C123.555 17.0211 127.983 15.7483 126.068 13.4458C125.594 12.8751 124.394 12.9446 123.747 13.0977C121.973 13.5178 121.353 14.6033 121.119 16.4149C120.839 18.5762 121.178 20.0677 122.243 21.9506C123.778 24.6624 126.909 26.1462 128.475 22.7448"
    stroke="white" stroke-width="2.9" stroke-linecap="round" />
  <path
    d="M184.918 14.2645C183.047 13.721 180.117 12.0486 178.668 13.8601C178.186 14.4627 177.539 15.0562 177.223 15.7664C176.587 17.198 176.663 18.502 177.119 19.9719C177.773 22.0774 180.571 27.2707 183 24.4547C183.571 23.793 184.331 23.4007 184.907 22.7679C185.612 21.9915 185.573 20.8535 185.75 19.8795C186.064 18.1542 185.964 16.3507 185.438 14.6689C184.834 12.7358 185.296 15.1486 185.45 15.8589C185.866 17.7883 186.373 19.6794 187.09 21.5201C187.451 22.4466 187.798 24.5027 188.661 25.0786"
    stroke="white" stroke-width="2.9" stroke-linecap="round" />
  <path
    d="M88.9062 5.71875C88.7249 10.545 88.7358 15.4228 88.3628 20.2406C88.3091 20.9337 88.1867 21.6098 88.3708 22.295C88.4905 22.7408 89.4756 23.8608 88.8748 24.0771"
    stroke="white" stroke-width="2.9" stroke-linecap="round" />
  <path
    d="M90.4727 6.61719C94.299 9.24699 101.605 12.7963 100.127 18.5994C99.6344 20.533 98.3351 22.4237 96.5376 23.3935C95.7609 23.8125 94.605 23.6587 93.731 23.9349C92.1556 24.4329 90.458 24.0723 88.9346 23.6044"
    stroke="white" stroke-width="2.9" stroke-linecap="round" />
  <path d="M106.206 14.4531C106.348 16.864 105.693 22.2771 107.391 24.3991" stroke="white" stroke-width="2.9"
    stroke-linecap="round" />
  <path d="M107.391 6.64307C102.831 11.5654 110.338 7.13426 105.97 6.40625" stroke="white" stroke-width="2.9"
    stroke-linecap="round" />
  <path
    d="M114.256 8.39062C114.191 13.2019 113.823 18.1924 114.387 22.9938C114.429 23.3462 114.479 23.7894 114.782 24.02C115.086 24.251 115.372 24.5778 115.677 24.7304"
    stroke="white" stroke-width="2.9" stroke-linecap="round" />
  <path
    d="M202.165 13.426C201.453 13.533 187.593 15.2007 194.492 17.0947C197.122 17.8165 201.081 17.7435 202.204 20.8673C202.501 21.695 203.158 23.5709 202.805 24.4268C202.361 25.5026 199.865 25.038 199.048 24.8241C197.087 24.3104 195.769 24.4724 193.844 24.4824"
    stroke="white" stroke-width="2.9" stroke-linecap="round" />
  <path d="M2.26618 5.71094C2.27935 11.6406 1.52299 18.5389 2.50299 24.4188" stroke="white" stroke-width="2.9"
    stroke-linecap="round" />
  <path d="M2.97656 16.8354L9.844 16.125" stroke="white" stroke-width="2.9" stroke-linecap="round" />
  <path d="M12.4487 5C12.2615 11.264 11.7383 18.6353 11.7383 24.6551" stroke="white" stroke-width="2.9"
    stroke-linecap="round" />
  <path
    d="M29.7734 13.5264C29.9359 17.1306 30.0713 20.737 30.2471 24.3406C30.2642 24.6915 30.2382 23.634 30.2997 23.2882C30.4812 22.267 30.4839 21.3065 30.4839 20.2623C30.4839 17.8966 30.7826 15.335 32.7335 13.6843C34.6179 12.0899 36.6852 17.1283 36.9698 18.1573C37.4947 20.0551 37.9054 25.9445 37.3645 24.0512C36.933 22.5409 37.8097 10.7823 41.1929 14.0526C43.5048 16.2876 43.8827 18.6864 44.2714 21.7094C44.4629 23.1991 44.1866 24.7323 44.2187 24.8932"
    stroke="white" stroke-width="2.9" stroke-linecap="round" />
  <path
    d="M54.9133 13.7064C52.5271 14.5257 47.2103 15.6274 48.3259 19.5071C48.5895 20.4238 49.1904 21.4429 49.7706 22.1908C50.45 23.0667 51.8818 24.7908 53.0659 24.746C55.8588 24.6404 55.9227 19.2039 55.5655 17.4285C55.3898 16.5552 55.5239 15.9047 55.4711 15.0515C55.4508 14.7246 56.4868 17.9184 56.6847 18.4741C57.4762 20.6966 57.7152 24.3831 60.3519 24.9081"
    stroke="white" stroke-width="2.9" stroke-linecap="round" />
  <path
    d="M64.8203 14.0943C64.9769 17.5675 65.1112 27.9858 65.2939 24.5138C65.329 23.8465 65.4991 23.0659 65.5834 22.3826C65.8375 20.3216 65.6496 16.3699 67.2147 14.8047C70.8474 11.1721 72.2293 18.0465 72.5034 20.396C72.6747 21.8645 73.3454 26.2291 73.3454 24.7507"
    stroke="white" stroke-width="2.9" stroke-linecap="round" />
  <path
    d="M17.1484 13.1562C17.2911 16.0259 17.3228 18.9428 17.689 21.7975C17.7491 22.2656 17.862 22.7354 18.0507 23.1688C18.376 23.9156 19.1381 24.4911 19.907 24.7309C20.538 24.9277 20.9968 24.7288 21.4611 24.2976C22.5388 23.297 23.583 22.418 24.1759 21.0303C24.8801 19.3821 25.1993 16.9042 24.7681 15.1317C24.7288 14.9702 24.4677 14.3117 24.3031 14.2294"
    stroke="white" stroke-width="2.9" stroke-linecap="round" />
  <path
    d="M133.511 13.69C134.031 17.2015 134.883 20.8348 134.976 24.3949C134.99 24.9152 134.802 22.4068 134.857 21.862C135.103 19.4067 133.219 16.4836 135.186 14.3147C136.811 12.5225 139.248 13.6768 140.185 15.2674C141.561 17.6026 141.999 21.1959 142.067 23.8173C142.121 25.8558 142.053 19.7123 142.5 17.7081C142.763 16.5271 143.919 12.5315 146.048 12.9813C148.505 13.5008 149.114 17.753 149.652 19.4689C150.227 21.2983 149.831 23.1576 150.86 24.855"
    stroke="white" stroke-width="2.9" stroke-linecap="round" />
  <path
    d="M156.044 13.096C156.318 16.6352 156.914 20.3191 156.758 23.877C156.736 24.397 156.724 21.8816 156.816 21.342C157.234 18.9099 155.557 15.8624 157.671 13.836C159.417 12.1615 161.768 13.483 162.592 15.1351C163.802 17.5606 163.987 21.1757 163.873 23.7954C163.784 25.8327 164.145 19.6995 164.73 17.7313C165.075 16.5716 166.508 12.6664 168.599 13.2636C171.015 13.9532 171.325 18.2374 171.743 19.9868C172.188 21.8518 171.663 23.6789 172.571 25.444"
    stroke="white" stroke-width="2.9" stroke-linecap="round" />
</svg>
