<svg width="42" height="22" viewBox="0 0 42 22" fill="none" xmlns="http://www.w3.org/2000/svg">
  <path
    d="M13.334 2C11.5113 2.02844 9.67437 2.00939 7.85557 2.15826C7.3454 2.20002 6.86072 2.28542 6.37737 2.45121C5.76524 2.66116 5.25654 3.03135 4.71397 3.37045C4.05606 3.78165 3.49083 4.18034 3.20546 4.9362C2.94881 5.61598 2.4607 6.85031 2.69701 7.56599C3.0191 8.54146 4.55798 9.1937 5.36721 9.66039C6.50071 10.3141 7.68379 10.8161 8.8691 11.3608C10.7422 12.2217 12.5852 13.3132 14.0411 14.7954C14.4809 15.2431 15.0321 15.9547 15.085 16.6069C15.1352 17.2262 14.5475 17.6861 14.1186 18.0279C12.5792 19.2546 10.6649 19.543 8.74452 19.5735C7.09738 19.5996 5.49358 19.3005 3.8587 19.1526C3.5572 19.1253 2.18786 18.8435 2 19.0313"
    stroke="white" stroke-width="2.5" stroke-linecap="round" />
  <path
    d="M19.8822 12.1818C21.6331 11.8992 23.9781 11.8409 25.4515 10.68C25.934 10.2999 26.4336 9.65098 26.3876 9.00651C26.2916 7.66264 25.1259 7.09657 23.9397 6.98282C22.7183 6.86571 20.9205 6.78691 19.9562 7.72361C18.5331 9.10612 18.0092 11.4669 18.2726 13.367C18.5032 15.0295 19.4894 16.3462 20.4815 17.6468C21.2783 18.6912 22.2364 19.1385 23.4918 19.4213C24.3428 19.6129 25.1589 19.6884 25.8556 19.0778C26.2192 18.7592 26.614 18.4088 26.8523 18.0003"
    stroke="white" stroke-width="2.5" stroke-linecap="round" />
  <path
    d="M29.2773 6.84375C31.6956 9.45005 34.1487 12.0284 36.537 14.6624C37.0897 15.2719 37.5457 15.9306 38.0119 16.6053C38.5211 17.3423 39.024 18.0915 39.6147 18.7637C39.8189 18.996 39.9614 19.3074 40.2477 19.4506C40.3359 19.4947 40.6326 19.6983 40.3689 19.6324"
    stroke="white" stroke-width="2.5" stroke-linecap="round" />
  <path
    d="M29.2148 20.0018C31.5302 16.5321 33.758 12.9811 36.3803 9.73184C36.6084 9.44919 36.83 9.11524 36.9931 8.78902C37.2914 8.1925 37.6151 7.66696 38.0504 7.15256C38.3113 6.84417 39.1375 5.95776 38.8518 6.24341"
    stroke="white" stroke-width="2.5" stroke-linecap="round" />
</svg>
