<svg width="30" height="30" viewBox="0 0 30 30" fill="none" xmlns="http://www.w3.org/2000/svg">
<circle cx="15" cy="15" r="14" fill="#191919" stroke="#845EC2" stroke-width="2"/>
<circle cx="15" cy="15" r="9" fill="#845EC2"/>
<path d="M7 15.5C7 13.5 7.5 9.5 12.4974 7.5" stroke="white" stroke-linecap="round"/>
</svg>
