<svg width="30" height="30" viewBox="0 0 30 30" fill="none" xmlns="http://www.w3.org/2000/svg">
<g clip-path="url(#clip0_4206_5586)">
<path d="M28.8891 15.0002C28.8891 7.3296 22.6708 1.11133 15.0002 1.11133C7.3296 1.11133 1.11133 7.3296 1.11133 15.0002C1.11133 22.6708 7.3296 28.8891 15.0002 28.8891C22.6708 28.8891 28.8891 22.6708 28.8891 15.0002Z" fill="#1A1A1A"/>
<path d="M14.8148 0C6.63703 0 0 6.63703 0 14.8148C0 22.9926 6.63703 29.6297 14.8148 29.6297C22.9926 29.6297 29.6297 22.9926 29.6297 14.8148C29.6297 6.63703 22.9926 0 14.8148 0ZM11.8519 22.2222L4.44444 14.8148L6.53333 12.7259L11.8519 18.0297L23.0963 6.78519L25.1852 8.88889L11.8519 22.2222Z" fill="white"/>
</g>
<defs>
<clipPath id="clip0_4206_5586">
<rect width="30" height="30" fill="white"/>
</clipPath>
</defs>
</svg>
