<svg width="45" height="13" viewBox="0 0 45 13" fill="none" xmlns="http://www.w3.org/2000/svg">
<path d="M2.14062 2.03906V9.96601" stroke="white" stroke-width="1.5" stroke-linecap="round"/>
<path d="M1.32812 1.42969C1.71137 1.59115 8.8005 3.76058 6.09334 5.17861C5.54907 5.46371 4.92625 5.48302 4.37696 5.74321C3.9208 5.95929 2.63272 5.71399 3.60911 5.94647C4.81068 6.23256 7.32962 10.0314 5.34807 10.1697C4.40365 10.2355 2.3057 10.2794 1.53139 9.76315" stroke="white" stroke-width="1.5" stroke-linecap="round"/>
<path d="M9.4579 7.93353C9.49434 7.84716 11.329 3.30945 9.66116 4.8847C9.07334 5.43987 8.3448 6.06104 8.24966 6.91725C8.13995 7.90465 9.26316 8.48121 9.96605 8.9498C11.2184 9.78469 11.9855 10.6759 13.1165 9.35631" stroke="white" stroke-width="1.5" stroke-linecap="round"/>
<path d="M19.2111 5.29102C18.2886 5.72421 13.3238 7.42358 15.8799 8.93832C16.4671 9.28628 17.3125 9.48071 17.9915 9.31096C19.1795 9.01397 19.0328 7.23204 19.0078 6.30729C18.9697 4.89757 18.8985 5.07247 19.6176 6.51055C20.3495 7.97433 21.0172 8.52766 22.2599 9.35612" stroke="white" stroke-width="1.5" stroke-linecap="round"/>
<path d="M23.8906 4.68164C24.534 6.11738 26.2398 11.4661 27.8202 7.73047C28.1941 6.84684 27.8177 5.8121 27.4476 4.99782C27.4262 4.95073 27.998 10.5337 29.785 8.74675" stroke="white" stroke-width="1.5" stroke-linecap="round"/>
<path d="M32.4219 1.42969C32.8815 3.35021 34.4312 6.66005 33.7995 8.79204C33.4839 9.85729 33.6414 9.60408 33.6414 8.54362" stroke="white" stroke-width="1.5" stroke-linecap="round"/>
<path d="M36.0816 4.47917L30.5938 3.46289" stroke="white" stroke-width="1.5" stroke-linecap="round"/>
<path d="M38.1116 4.07227C38.3557 4.70046 40.785 11.8285 41.6121 7.84378C41.8395 6.74792 41.9734 5.85942 41.9734 4.7272C41.9734 4.31647 42.2673 5.37971 42.3122 5.47247C42.9904 6.87509 44.2739 8.91846 43.0349 10.3958C40.9921 12.8314 37.2246 11.8283 34.6562 11.1862" stroke="white" stroke-width="1.5" stroke-linecap="round"/>
</svg>
