<svg width="32" height="32" viewBox="0 0 32 32" fill="none" xmlns="http://www.w3.org/2000/svg">
<line x1="7.93934" y1="24.9393" x2="24.9393" y2="7.93934" stroke="white" stroke-width="3"/>
<line x1="24.9393" y1="25.0607" x2="7.93934" y2="8.06066" stroke="white" stroke-width="3"/>
<rect x="14.25" y="16.5039" width="3.03823" height="3.01789" transform="rotate(-45 14.25 16.5039)" fill="white"/>
</svg>
