<svg width="26" height="25" viewBox="0 0 26 25" fill="none" xmlns="http://www.w3.org/2000/svg">
<path d="M6.9375 18.7336C9.50728 18.5186 12.2942 18.2388 14.8948 18.2388C15.766 18.2388 16.6355 18.0341 17.3643 18.3625" stroke="white" stroke-width="2.0267" stroke-linecap="round"/>
<path d="M9.95291 18.1758C9.03716 23.2218 10.7851 20.2174 10.7851 18.4789" stroke="white" stroke-width="2.0267" stroke-linecap="round"/>
<path d="M13.5234 18.6347C13.6115 18.8278 15.0009 22.3028 15.0009 20.3939C15.0009 20.0759 15.0702 19.8261 15.2589 19.5525C15.4491 19.2768 15.9515 19.0144 16.0445 18.7112C16.1006 18.5283 16.1775 18.1758 16.2673 18.1758" stroke="white" stroke-width="2.0267" stroke-linecap="round"/>
<path d="M9.6875 7.40646C10.0762 8.29272 10.4808 9.92112 11.2072 10.5718C11.4087 10.7522 11.6061 10.8837 11.7138 11.1599C11.9595 11.7901 12.2338 11.3653 12.6331 11.0209C13.845 9.97538 15.9007 7.44566 16.2728 7.02148" stroke="white" stroke-width="2.0267" stroke-linecap="round"/>
<path d="M7.76118 4.97454C6.0083 6.34074 3.19748 7.82143 2.81574 10.1318C2.69536 10.8603 2.67642 11.6253 2.50802 12.342C2.28864 13.2758 1.87693 14.7902 2.03545 15.7495C2.30988 17.4103 2.57933 18.9369 3.90373 20.17C5.07513 21.2607 6.05814 21.9571 7.57436 22.5747C9.02938 23.1674 9.86204 23.8043 11.5637 23.7514C13.9074 23.6787 15.8985 22.9279 18.1246 22.3905C24.3153 20.8961 26.6102 11.9106 22.2459 7.69642C19.9024 5.43362 17.3511 5.68126 14.487 4.42197C13.3688 3.93035 11.5874 4.49588 10.5306 4.97454C10.3168 5.0714 8.94809 5.68652 8.94809 5.5271" stroke="white" stroke-width="2.0267" stroke-linecap="round"/>
<path d="M7.76118 4.97454C6.0083 6.34074 3.19748 7.82143 2.81574 10.1318C2.69536 10.8603 2.67642 11.6253 2.50802 12.342C2.28864 13.2758 1.87693 14.7902 2.03545 15.7495C2.30988 17.4103 2.57933 18.9369 3.90373 20.17C5.07513 21.2607 6.05814 21.9571 7.57436 22.5747C9.02938 23.1674 9.86204 23.8043 11.5637 23.7514C13.9074 23.6787 15.8985 22.9279 18.1246 22.3905C24.3153 20.8961 26.6102 11.9106 22.2459 7.69642C19.9024 5.43362 17.3511 5.68126 14.487 4.42197C13.3688 3.93035 11.5874 4.49588 10.5306 4.97454C10.3168 5.0714 8.94809 5.68652 8.94809 5.5271" stroke="white" stroke-width="2.0267" stroke-linecap="round"/>
<path d="M4.74599 5.90442C3.95582 4.59898 3.36178 3.94414 3.79382 2.50323C3.85272 2.30677 3.90308 2.1573 3.90308 2" stroke="white" stroke-width="2.0267" stroke-linecap="round"/>
<path d="M4.75 2.55859C4.95004 3.72396 4.88454 4.88383 5.84755 5.34747" stroke="white" stroke-width="2.0267" stroke-linecap="round"/>
<path d="M20.1094 5.13143C20.4269 4.35912 21.2293 3.17949 20.9407 2.41739C20.9186 2.35916 20.7405 2.09595 20.7698 2.07384C21.238 1.72076 21.7396 2.73804 21.7492 2.93272C21.7994 3.95473 21.5442 4.91752 21.5442 5.90442" stroke="white" stroke-width="2.0267" stroke-linecap="round"/>
<path d="M8.46083 10.3686C11.5023 12.6492 10.0434 10.3006 8.46083 10.3686C5.99859 10.4745 8.95123 12.2346 9.42107 12.5983" stroke="white" stroke-width="2.0267" stroke-linecap="round"/>
<path d="M12.4297 10.7204C15.3841 11.1194 14.9325 9.18886 13.5423 9.25355C12.5882 9.29794 13.7192 11.614 14.284 10.7204" stroke="white" stroke-width="2.0267" stroke-linecap="round"/>
</svg>
