<svg width="38" height="23" viewBox="0 0 38 23" fill="none" xmlns="http://www.w3.org/2000/svg">
<path d="M15.7314 3.44745C12.6936 7.15356 8.34076 10.6968 5.68965 14.5809C5.07695 15.4785 0.543574 19.9721 2.4763 20.3773C4.85956 20.8769 7.89667 20.8194 10.3089 20.4657C13.3658 20.0173 16.6461 20.6118 19.7927 20.3773C24.0372 20.0609 28.354 20.9428 32.6015 20.9428C33.4332 20.9428 34.8165 21.1637 35.5694 20.9251C35.8707 20.8297 33.1698 17.7214 32.9139 17.4437C30.3006 14.6077 27.4397 11.3223 25.3715 8.21891C24.1882 6.4434 21.9439 5.36298 20.239 4.01295C18.3775 2.53889 17.7397 0.460846 17.7397 3.76556" stroke="white" stroke-width="3.35928" stroke-linecap="round"/>
<path d="M17.6744 5.35938C17.3892 6.16238 16.8487 7.09768 17.0524 7.94727C17.166 8.42129 17.442 8.87164 17.4878 9.35606C17.5085 9.57533 17.5321 9.86208 17.4463 10.0758C17.1951 10.702 17.1146 11.429 17.1146 12.0818C17.1146 12.8262 16.5547 13.6015 16.5547 14.3175" stroke="white" stroke-width="3.35928" stroke-linecap="round"/>
</svg>
