<svg width="31" height="11" viewBox="0 0 31 11" fill="none" xmlns="http://www.w3.org/2000/svg">
<path d="M2.36911 1.19922C1.89307 3.56176 1.4535 5.72715 1.5984 8.11809C1.63194 8.67155 1.6597 9.39154 1.6597 9.8697" stroke="white" stroke-width="1.5" stroke-linecap="round"/>
<path d="M2.29688 1.75209C4.10024 1.52257 6.12601 0.958506 7.94582 1.35797C8.2973 1.43513 8.89625 1.52567 8.20857 1.59444" stroke="white" stroke-width="1.5" stroke-linecap="round"/>
<path d="M2.29688 4.58984C2.75848 4.61514 5.02255 5.01705 5.37095 4.66867" stroke="white" stroke-width="1.5" stroke-linecap="round"/>
<path d="M11.5989 5.29923C10.289 5.12021 7.26003 4.46497 7.39499 6.69176C7.45468 7.67659 7.88015 8.53422 8.71746 9.0652C9.54662 9.591 10.4072 9.7381 11.0909 8.94258C11.4765 8.49391 11.7815 7.92369 11.739 7.32234C11.698 6.74256 11.4532 6.24094 11.3011 5.69334C11.1966 5.31732 11.2509 5.42022 11.3974 5.74589C11.8547 6.76214 12.169 7.98444 12.9038 8.83749C12.9982 8.94705 13.6973 9.69411 13.8059 9.47682" stroke="white" stroke-width="1.5" stroke-linecap="round"/>
<path d="M14.75 4.667C16.6575 15.3966 14.2865 4.70203 16.7819 4.70203C17.7894 4.70203 18.3363 6.19149 18.5335 6.93534C18.6895 7.52366 18.7974 8.12304 18.9626 8.70885C18.981 8.77395 19.1565 9.40568 19.1641 9.06355C19.1795 8.36849 19.3833 3.64682 20.8982 4.40426C22.0566 4.98348 22.4931 6.063 22.8074 7.2156C23.0654 8.16159 23.5808 9.01297 23.8146 9.94811" stroke="white" stroke-width="1.5" stroke-linecap="round"/>
<path d="M25.5493 7.03199C26.0171 6.8266 31.1197 5.25691 29.5693 3.99294C29.0178 3.5434 28.2181 3.49814 27.5724 3.73458C26.369 4.17528 25.5485 5.38826 25.2428 6.59409C24.9157 7.88413 25.4531 8.58633 26.6353 9.14268C27.8868 9.73164 28.7503 9.88116 30.0422 9.39667" stroke="white" stroke-width="1.5" stroke-linecap="round"/>
</svg>
