<svg width="44" height="49" viewBox="0 0 44 49" fill="none" xmlns="http://www.w3.org/2000/svg">
<path d="M14.3203 45.3552C16.8839 40.7622 21.1273 35.5414 21.9159 30.213C22.1048 28.9367 21.335 27.821 21.819 26.5271C22.0859 25.8137 21.8191 25.0923 22.0128 24.3952C22.0311 24.3295 24.693 29.2104 25.1324 30.0137C27.3533 34.0736 30.7925 37.6766 32.6118 41.9283C33.1396 43.1617 35.5958 45.6844 35.5958 46.7898" stroke="white" stroke-width="3.35928" stroke-linecap="round"/>
<path d="M20.5997 24.3948C20.6314 20.7428 21.2544 17.2042 20.955 13.6408C20.8503 12.3952 20.9363 11.1164 20.9363 9.86629C20.9363 9.71719 20.9165 10.1992 20.8615 10.2936C20.5281 10.8649 19.5405 11.0243 18.9915 11.3263C16.3945 12.7549 13.9065 14.7386 11.1563 15.8842C9.73895 16.4746 6.8314 15.305 10.5018 15.7418" stroke="white" stroke-width="3.35928" stroke-linecap="round"/>
<path d="M23.2734 10.957C25.084 14.2559 25.9228 17.1483 29.6879 18.1924C32.2843 18.9125 34.8767 18.8815 37.5495 18.8815C38.775 18.8815 40.0006 18.8815 41.2261 18.8815C42.7385 18.8815 42.6008 18.5696 41.2261 19.9151" stroke="white" stroke-width="3.35928" stroke-linecap="round"/>
<path d="M26.4145 2.37266C26.1505 2.53968 20.1087 5.55267 22.8834 6.06553C23.8327 6.24098 25.0648 6.28432 26.0428 6.37471C28.5015 6.60194 30.146 6.6304 30.9575 4.60556C32.3351 1.168 24.1843 1.44998 24.1843 3.60935" stroke="white" stroke-width="3.35928" stroke-linecap="round"/>
<path d="M2 20.754C6.66376 19.9231 9.29728 19.2694 13.1976 21.0358" stroke="white" stroke-width="3.35928" stroke-linecap="round"/>
<path d="M7.60156 26.1745C9.72841 25.9916 12.8375 24.9398 14.9817 25.944C15.9067 26.3773 15.2444 26.6354 14.6303 26.6354" stroke="white" stroke-width="3.35928" stroke-linecap="round"/>
<path d="M3.11719 33.4064C5.21237 33.5477 12.7481 32.5334 14.3148 35.593" stroke="white" stroke-width="3.35928" stroke-linecap="round"/>
</svg>
