<svg width="33" height="42" viewBox="0 0 33 42" fill="none" xmlns="http://www.w3.org/2000/svg">
<path d="M2 9.25793C2.74879 13.5995 3.50805 17.2283 2.97524 21.5335C2.64342 24.2147 2.30884 26.4924 2.8127 29.1571C3.15864 30.9867 3.95048 32.6952 3.95048 34.5873C3.95048 36.2926 3.62539 37.9913 3.62539 39.6462C3.62539 39.9916 17.08 40.0353 18.5069 39.8938C21.3668 39.6101 24.4458 38.9002 27.3202 39.257C27.5688 39.2879 31.1058 40.098 31.1128 40.0707C31.152 39.9168 30.042 37.952 29.9569 37.6651C28.1415 31.5409 27.337 23.9601 27.6994 17.5714C27.8568 14.7968 32.0112 7.77543 28.3135 6.87004C22.3861 5.41874 16.3056 8.45736 10.4521 8.62117C8.51771 8.6753 6.48423 8.7835 4.60063 8.37353C2.30033 7.87286 2.32506 8.60122 2.32506 10.5315" stroke="white" stroke-width="3.35928" stroke-linecap="round"/>
<path d="M10.9531 4.23828C10.9531 8.31154 10.9531 10.4416 10.9531 10.9568" stroke="white" stroke-width="3.35928" stroke-linecap="round"/>
<path d="M10.9531 4.22864C14.4389 3.50125 17.5976 2.82622 21.1156 2.82622C21.7493 2.82622 22.2205 2.79729 22.8093 2.55352C23.2983 2.35107 24.2872 1.66204 24.3525 2.20292C24.6508 4.67263 23.0719 7.2618 23.4868 9.83833" stroke="white" stroke-width="3.35928" stroke-linecap="round"/>
<path d="M9.37545 34.4721C11.3071 34.0446 26.8357 32.6286 21.109 27.6706C18.2375 25.1846 10.3178 28.9511 8.60349 26.0396C6.73739 22.8704 7.50904 18.5217 10.4948 16.115C12.689 14.3463 15.1865 15.246 17.7124 14.727C20.3269 14.1897 22.1807 13.7452 23.2704 16.3579" stroke="white" stroke-width="3.35928" stroke-linecap="round"/>
<path d="M23.2733 16.5572C21.9036 14.5348 19.0604 9.03952 20.1623 14.2807" stroke="white" stroke-width="3.35928" stroke-linecap="round"/>
</svg>
