<svg width="53" height="15" viewBox="0 0 53 15" fill="none" xmlns="http://www.w3.org/2000/svg">
<path d="M4.24219 12.0486C11.7923 12.0486 19.3442 12.1144 26.8883 12.0486C30.0892 12.0207 33.2669 11.4245 36.4656 11.4245C41.1088 11.4245 45.752 11.4245 50.3952 11.4245C51.7059 11.4245 51.159 6.62785 51.159 5.96372C51.159 5.21582 51.1627 3.9521 50.8316 3.24199C50.3532 2.2158 51.139 1.54125 49.195 2.3752" stroke="white" stroke-width="3.35928" stroke-linecap="round"/>
<path d="M4.23952 13.1989C3.28621 10.6276 2.44788 8.0284 2.44788 5.50568C2.44788 4.95406 2.44788 4.40245 2.44788 3.85084C2.44788 2.97213 2.75116 2.78791 2 3.85084" stroke="white" stroke-width="3.35928" stroke-linecap="round"/>
<path d="M4.24219 2.49257C7.32706 2.05346 10.0367 1.29155 10.0367 3.48825C10.0367 4.39342 9.36808 5.18257 9.36808 6.11972C9.36808 6.28596 9.22168 7.12936 9.49189 7.17864C10.0213 7.27517 12.0026 7.36022 12.0425 6.90205C12.1098 6.12825 12.6588 5.3098 12.9215 4.55507C13.0422 4.20844 12.9339 3.77244 12.9339 3.41713C12.9339 2.66421 13.2064 3.09228 13.9368 3.19587C14.5397 3.28138 14.7103 3.20377 15.274 3.20377C16.2433 3.20377 15.6083 3.88056 15.6083 4.3417C15.6083 4.62895 15.3506 6.96682 15.7321 7.03639C17.3524 7.33185 18.5055 7.10617 18.5055 6.0486C18.5055 5.28311 18.819 4.18735 18.3322 3.48825C17.4183 2.17572 18.805 2.49257 20.3999 2.49257C23.9394 2.49257 19.0055 6.14515 21.0809 6.90205C21.9315 7.2123 23.0323 6.90205 23.9657 6.90205C24.978 6.90205 24.7458 6.60079 24.7458 6.01699C24.7458 4.92963 24.7438 3.87499 24.2877 2.85607C23.7584 1.67381 26.3014 2.35032 27.643 2.35032C28.9011 2.35032 28.225 4.78394 28.1011 5.3374C27.8652 6.39153 27.4422 7.04429 29.5374 7.04429C31.1938 7.04429 31.2088 4.73904 31.2088 3.88337C31.2088 3.44181 30.9474 2.88678 30.986 2.49256C30.9914 2.43695 33.385 2.49257 33.7718 2.49257C35.0694 2.49257 35.4478 4.58767 35.0471 5.19515C34.6123 5.85429 33.9262 6.99325 34.9976 7.29717C36.6349 7.76162 37.1237 5.89431 37.3376 5.26628C37.4845 4.83516 37.8115 4.13793 37.6596 3.70162C37.6041 3.54226 37.1361 2.62441 37.2757 2.52417C37.5883 2.29978 39.5874 2.47244 40.1235 2.49257C40.8588 2.52017 40.5692 3.62395 40.5692 3.91498C40.5692 4.66225 40.5495 6.40008 39.5663 6.90205C38.7017 7.3435 42.6748 7.54675 42.7978 7.58165C43.7662 7.85633 43.5924 4.74819 43.4541 4.26268C43.3567 3.92081 42.8308 3.02996 43.0455 2.72173C43.2131 2.48107 45.5671 2.5731 45.7446 2.77705C47.1315 4.37042 46.1408 5.46808 46.1408 6.97317C46.1408 7.58556 48.7791 7.6668 49.3847 7.43941C49.9778 7.21676 49.2609 4.72304 49.2609 4.27058C49.2609 3.44051 48.1119 1.76412 50.1524 2.77704" stroke="white" stroke-width="3.35928" stroke-linecap="round"/>
</svg>
