<svg width="33" height="12" viewBox="0 0 33 12" fill="none" xmlns="http://www.w3.org/2000/svg">
<path d="M2.05376 1.56055C1.9659 3.47603 1.76679 5.4174 1.76679 7.3361C1.76679 7.58131 1.76125 7.79605 1.69504 8.03363C1.53628 8.60328 1.09266 9.12585 1.22869 9.75156C1.26024 9.8967 1.39868 9.70689 1.51169 9.66785C2.13478 9.4526 2.76845 9.39637 3.42491 9.38485C4.34115 9.36878 5.30862 9.52339 6.21504 9.36492C6.64235 9.29022 6.96379 9.05018 7.36298 8.95039" stroke="white" stroke-width="1.5" stroke-linecap="round"/>
<path d="M13.1748 5.50646C11.7697 5.11966 10.0477 4.38945 9.01356 5.8054C8.65894 6.29095 8.38234 6.84788 8.53526 7.45955C8.76785 8.38993 9.79225 9.9889 10.8431 10.1819C11.8014 10.3579 12.1061 9.22738 12.3856 8.55965C12.6058 8.03363 13.1669 7.57219 13.1669 6.97726C13.1669 6.38725 12.6962 4.5885 13.1589 6.20798C13.4578 7.2543 13.7098 8.48949 14.251 9.43655C14.3767 9.65656 15.4707 10.7845 15.4707 10.0982" stroke="white" stroke-width="1.5" stroke-linecap="round"/>
<path d="M16.4688 4.86133C17.3116 6.39625 18.0658 7.87928 18.6769 9.50888C18.7389 9.67403 18.7838 9.93524 18.9081 10.0669C18.9251 10.0849 19.3373 9.16706 19.3745 9.08637C19.8063 8.14755 20.0213 7.106 20.5224 6.1966C20.6113 6.03528 21.0689 5.07657 21.2757 5.07657" stroke="white" stroke-width="1.5" stroke-linecap="round"/>
<path d="M19.3438 4.93164C19.443 5.08893 22.1795 9.80096 22.3969 9.62304C22.9589 9.16328 23.2594 8.31023 23.5608 7.67393C23.978 6.79319 24.5497 6.1306 25.1073 5.34219C25.3882 4.94518 25.4737 5.01008 25.0834 5.07513" stroke="white" stroke-width="1.5" stroke-linecap="round"/>
<path d="M31.609 5.07583C30.5913 4.92546 28.1427 4.16556 27.3361 5.29107C27.1246 5.58615 27.2854 5.97412 27.5314 6.1839C28.1738 6.73188 29.0877 6.76175 29.7675 7.28401C30.443 7.80303 31.2627 8.52865 30.477 9.28094C29.1756 10.527 27.7131 9.88774 26.1562 9.59583" stroke="white" stroke-width="1.5" stroke-linecap="round"/>
</svg>
