<svg width="26" height="12" viewBox="0 0 26 12" fill="none" xmlns="http://www.w3.org/2000/svg">
<path d="M1.45391 1.08594C1.19977 3.61915 1.02344 6.0903 1.02344 8.62724C1.02344 8.93991 1.09519 9.24183 1.09519 9.55197C1.09519 10.0858 1.23652 10.001 1.78873 9.97846C3.20092 9.92082 4.58935 9.77718 6.0058 9.76721C6.48097 9.76386 6.96137 9.64536 7.43275 9.6556C7.52646 9.65764 7.79953 9.83895 7.69582 9.83895" stroke="white" stroke-width="1.5" stroke-linecap="round"/>
<path d="M9.77734 5.25C9.81524 6.73232 9.92083 8.21578 9.92083 9.69826" stroke="white" stroke-width="1.5" stroke-linecap="round"/>
<path d="M10.0637 1.44393C10.0246 1.83432 9.62178 3.25022 10.3547 3.26548C10.6481 3.2716 10.9484 3.1957 11.1797 3.0064C11.4661 2.77214 11.5934 2.39034 11.4189 2.05377C11.2752 1.77659 11.0186 1.31842 10.6695 1.27652C10.3276 1.2355 9.80444 1.61623 9.41797 1.65917" stroke="white" stroke-width="1.5" stroke-linecap="round"/>
<path d="M12.1445 7.25759C12.9393 6.95305 17.6266 5.88124 16.0746 4.2044C15.6729 3.77035 15.0437 3.77462 14.5201 3.97322C13.2939 4.43834 12.6001 5.63137 12.288 6.83509C11.5684 9.61062 15.5629 11.3792 17.5255 9.69695" stroke="white" stroke-width="1.5" stroke-linecap="round"/>
<path d="M24.3422 4.53125C23.3947 4.60123 21.7978 4.70128 20.8027 4.83418C20.5435 4.8688 19.8914 4.94909 19.599 5.16102C19.4531 5.26676 19.4989 5.55054 19.5193 5.69513C19.5963 6.24301 19.9171 6.42014 20.428 6.55608C21.6746 6.88775 23.9788 7.58283 24.0432 9.19474C24.0876 10.3034 22.8304 10.6118 21.9427 10.3387C21.5465 10.2168 21.1934 9.99275 20.7947 9.88032C20.4542 9.78427 20.1692 9.78291 19.8939 9.55347" stroke="white" stroke-width="1.5" stroke-linecap="round"/>
</svg>
