<svg width="48" height="11" viewBox="0 0 48 11" fill="none" xmlns="http://www.w3.org/2000/svg">
<path d="M1.56303 1.22656C1.211 3.99875 0.75 6.76229 0.75 9.56002" stroke="white" stroke-width="1.5" stroke-linecap="round"/>
<path d="M2.375 2.03906C2.42428 2.13762 4.64759 7.04475 5.01731 6.39776C5.27943 5.93903 5.60265 5.50447 5.8755 5.04272C6.13897 4.59684 7.13245 2.05318 7.65963 2.28748C9.20027 2.97222 8.00055 7.87104 8.6759 9.5595" stroke="white" stroke-width="1.5" stroke-linecap="round"/>
<path d="M12.3281 5.69727C12.3551 5.92803 12.7346 11.5654 12.7346 8.94935" stroke="white" stroke-width="1.5" stroke-linecap="round"/>
<path d="M13.345 0.820312C12.982 1.4011 10.7946 4.82282 13.1417 3.71106C13.829 3.38552 14.1918 3.189 14.4064 2.49152C14.8461 1.06277 13.5548 0.845584 12.532 1.43008" stroke="white" stroke-width="1.5" stroke-linecap="round"/>
<path d="M15.9922 5.08844C16.0034 5.20505 16.3987 10.7954 16.3987 8.34053C16.3987 7.57364 16.5941 6.85133 16.76 6.10472C16.9236 5.36888 16.7674 5.09327 17.6634 4.93036C17.988 4.87135 20.1777 5.02823 19.6508 5.2917" stroke="white" stroke-width="1.5" stroke-linecap="round"/>
<path d="M22.4922 4.88434C22.5604 6.39368 22.6954 10.9233 22.6954 9.41241C22.6954 8.82143 22.5148 8.24931 22.5148 7.66216C22.5148 7.12551 22.7916 6.05036 23.1471 5.65219C23.754 4.9725 24.2323 4.3065 25.2474 4.59075C26.195 4.85608 27.4787 5.62064 28.1833 4.68108" stroke="white" stroke-width="1.5" stroke-linecap="round"/>
<path d="M33.2709 5.29072C32.0995 5.67697 27.9668 6.30389 28.596 8.33955C28.7684 8.89732 29.1017 9.34623 29.6575 9.55908C31.0572 10.0952 32.1242 9.90104 33.0225 8.74606C34.1928 7.2413 34.0191 3.59546 31.4416 4.88422" stroke="white" stroke-width="1.5" stroke-linecap="round"/>
<path d="M36.1094 4.47852C36.1208 4.73233 36.1616 10.4844 36.4143 9.22113C36.6127 8.22904 36.3126 7.46402 36.3126 6.52236C36.3126 4.60455 38.7732 4.2896 39.9712 5.08828" stroke="white" stroke-width="1.5" stroke-linecap="round"/>
<path d="M46.6837 5.08768C44.0733 3.96317 43.1661 3.1128 41.3991 5.08768C40.656 5.91819 43.4902 6.6495 43.9398 7.02989C44.2802 7.31795 45.8647 8.99682 44.9448 9.16407C43.0482 9.5089 41.5104 10.7982 40.3828 8.54302" stroke="white" stroke-width="1.5" stroke-linecap="round"/>
</svg>
