<svg width="33" height="13" viewBox="0 0 33 13" fill="none" xmlns="http://www.w3.org/2000/svg">
<path d="M2.74414 2.19922C2.59234 4.35571 2.71841 6.85688 2.01722 8.96044C1.82517 9.53659 1.64062 9.93003 1.64062 10.5544" stroke="white" stroke-width="1.5" stroke-linecap="round"/>
<path d="M3.21875 2.35798C3.93484 4.96592 4.31777 7.80662 6.1308 9.90743C6.3459 10.1567 6.60436 10.4094 6.74825 10.7132C6.90165 11.037 7.40646 9.06055 7.46641 8.79078C7.79673 7.30434 7.68615 5.82482 8.10575 4.33292C8.38682 3.33357 8.47048 2.43818 8.34221 1.41211" stroke="white" stroke-width="1.5" stroke-linecap="round"/>
<path d="M14.4872 5.58859C13.4782 5.74315 9.84693 5.73327 9.96369 7.48471C9.99905 8.01504 10.1258 8.51353 10.4498 8.94293C11.2052 9.9443 12.5311 10.6207 13.7472 10.1121C14.8764 9.63989 15.5531 8.79073 15.8097 7.57667C16.1624 5.90832 14.6466 5.59686 13.3837 5.50977" stroke="white" stroke-width="1.5" stroke-linecap="round"/>
<path d="M17.8804 5.19531C17.828 6.95079 17.6961 8.73638 17.784 10.4939C17.7965 10.7438 17.7324 9.99568 17.6877 9.7495C17.4777 8.59454 17.0154 7.16265 18.0292 6.25942C18.5538 5.79205 19.5816 5.18347 20.3239 5.21721C20.8963 5.24323 21.4921 5.72381 21.9791 5.98354" stroke="white" stroke-width="1.5" stroke-linecap="round"/>
<path d="M24.0243 1.88477C23.9383 4.71978 23.9455 7.67681 23.9455 10.4764" stroke="white" stroke-width="1.5" stroke-linecap="round"/>
<path d="M26.6278 4.32853C25.3042 4.26785 23.6857 4.45898 22.3758 4.13147C22.1885 4.08466 22.0569 4.06522 21.8984 4.17088" stroke="white" stroke-width="1.5" stroke-linecap="round"/>
<path d="M27.6505 2.19922C27.5768 4.96333 27.4249 7.68325 27.7293 10.423C27.8493 11.5031 27.6447 8.23342 27.8432 7.16504C27.9544 6.56672 28.1147 5.50882 28.4957 5.01494C28.9691 4.40127 29.9685 4.77992 30.4093 5.22075C31.3918 6.20322 31.4399 7.60725 31.3114 8.90352C31.201 10.0176 31.1488 10.4154 31.6705 11.4215" stroke="white" stroke-width="1.5" stroke-linecap="round"/>
</svg>
