<svg width="41" height="15" viewBox="0 0 41 15" fill="none" xmlns="http://www.w3.org/2000/svg">
<path d="M1.87906 1.39844C1.86217 3.854 1.79721 6.29837 1.58136 8.74455C1.56957 8.87827 1.49756 9.90532 1.40625 9.35746" stroke="white" stroke-width="1.5" stroke-linecap="round"/>
<path d="M2.27344 1.55469C3.38737 1.75457 9.9048 2.49266 8.07853 5.22337C7.40242 6.23432 5.77112 6.15578 4.70755 6.10771C3.82727 6.06792 3.07778 5.82089 2.35224 5.33719" stroke="white" stroke-width="1.5" stroke-linecap="round"/>
<path d="M13.6157 5.65234C12.3669 5.79588 8.18382 5.65439 9.2728 8.01641C9.72035 8.98717 10.8769 9.25126 11.847 9.39983C12.8896 9.5595 13.0503 7.52746 12.8627 6.80373C12.6565 6.00836 12.8154 6.83288 12.8846 7.21088C13.0293 8.00152 13.3986 8.81031 13.7339 9.53992C13.8252 9.73868 14.0885 9.98254 14.0885 10.1441" stroke="white" stroke-width="1.5" stroke-linecap="round"/>
<path d="M16.6875 5.17969C16.9654 7.85857 17.605 10.8256 17.3442 13.5459C17.3121 13.8801 17.2389 14.3207 16.8451 14.1631" stroke="white" stroke-width="1.5" stroke-linecap="round"/>
<path d="M17.0859 5.25929C18.3957 5.06752 19.9753 4.6659 21.2099 5.38188C21.7433 5.69119 22.147 6.36086 22.5189 6.83534C23.0551 7.5194 23.555 8.09386 22.9173 8.8842C21.7197 10.3685 18.7485 9.21568 17.4011 8.49019" stroke="white" stroke-width="1.5" stroke-linecap="round"/>
<path d="M24.1016 6.99201C24.4654 6.87984 28.7034 6.00902 27.1442 4.86873C26.8077 4.62263 26.3638 4.51135 25.949 4.56665C25.3117 4.65163 24.7377 5.58498 24.5481 6.1427C23.9027 8.04086 27.0286 9.89072 28.5145 8.96207" stroke="white" stroke-width="1.5" stroke-linecap="round"/>
<path d="M30.3203 4.23454C30.3782 5.76931 30.6355 10.3672 30.6355 8.83134C30.6355 8.16094 30.5056 7.48579 30.5129 6.80874C30.521 6.06381 30.6284 4.148 31.4454 3.84491C32.2544 3.54481 33.418 4.41741 34.1028 4.78616" stroke="white" stroke-width="1.5" stroke-linecap="round"/>
<path d="M39.8602 4.70741C39.5755 4.64399 36.1289 3.52984 35.9026 4.35717C35.8261 4.63665 36.407 5.25924 36.5505 5.49105C37.0275 6.2615 37.7276 6.4732 38.5468 6.76064C39.5444 7.11067 39.1834 8.21381 38.722 8.91019C37.4412 10.8432 34.7373 8.81812 33.3984 7.9383" stroke="white" stroke-width="1.5" stroke-linecap="round"/>
</svg>
