<svg width="48" height="41" viewBox="0 0 48 41" fill="none" xmlns="http://www.w3.org/2000/svg">
<path d="M3.11719 5.95363C3.41425 6.43515 6.37973 12.2271 6.70755 10.7035C7.05889 9.0705 7.74483 7.56294 8.16501 5.95363C8.54316 4.50534 8.37094 0.480614 9.83575 2.60809" stroke="white" stroke-width="3.35928" stroke-linecap="round"/>
<path d="M16.5547 8.71999C23.8898 7.84991 30.9933 6.92839 38.3655 6.92839C40.8709 6.92839 43.2075 6.83747 45.6685 6.48047" stroke="white" stroke-width="3.35928" stroke-linecap="round"/>
<path d="M3.11719 22.1562C5.61293 20.5107 6.80826 18.1669 9.83575 18.9539" stroke="white" stroke-width="3.35928" stroke-linecap="round"/>
<path d="M2 17.6758C2.28431 20.395 1.37985 23.5501 5.35928 21.4941" stroke="white" stroke-width="3.35928" stroke-linecap="round"/>
<path d="M22.1562 22.1549C27.7096 21.7914 33.2278 21.4084 38.7914 21.4084C41.3266 21.4084 42.271 21.6216 44.5515 21.0352" stroke="white" stroke-width="3.35928" stroke-linecap="round"/>
<path d="M3.11719 31.2419C3.75936 33.3701 5.78337 43.1829 6.11982 36.8567C6.24948 34.4186 7.59623 32.4689 7.59623 29.9941" stroke="white" stroke-width="3.35928" stroke-linecap="round"/>
<path d="M16.5547 35.5924C24.107 35.318 32.2298 34.533 39.8268 35.0948C41.6926 35.2327 41.7643 35.1554 43.429 34.4727" stroke="white" stroke-width="3.35928" stroke-linecap="round"/>
</svg>
