<svg width="31" height="32" viewBox="0 0 31 32" fill="none" xmlns="http://www.w3.org/2000/svg">
<path d="M2 8.46213C2.10113 9.02375 2.6669 15.1291 2.90604 15.1291C3.48923 15.1291 3.96107 15.0555 4.51679 14.9192C5.20074 14.7515 6.59682 16.5108 6.87697 17.1292C7.88472 19.3538 7.00523 21.1121 5.06488 21.7467C4.57055 21.9084 2.81267 22.1019 2.7047 22.364C2.31769 23.3038 2.60403 24.9854 2.60403 26.0185C2.60403 26.9124 2.60403 27.9074 2.60403 28.7964C2.60403 29.512 4.02902 28.7091 4.41611 28.6853C6.40258 28.5635 8.29855 28.4631 10.2551 28.4631C11.2579 28.4631 12.0745 25.2051 12.5593 24.3641C13.1901 23.27 14.0436 23.4923 15.0425 23.574C17.241 23.7537 15.5216 28.4046 17.1007 29.1792C18.3891 29.8112 21.1009 29.994 22.4363 29.994C23.1781 29.994 23.3019 24.3178 23.1298 23.4628C22.9475 22.5576 24.0914 22.2906 24.9531 22.2406C26.2903 22.1629 27.0265 21.4698 27.8837 20.3516C30.0679 17.5025 28.4252 13.5735 25.0537 13.5735C23.9312 13.5735 22.3356 14.5778 22.3356 13.129C22.3356 11.4214 22.3356 9.77896 22.3356 8.12878C22.3356 5.45515 17.9927 6.94461 16.5862 7.46208C15.2397 7.95745 14.6846 7.66032 14.6846 6.2398C14.6846 4.95165 14.2671 4.43687 13.3759 3.67178C12.0969 2.57383 10.8411 1.5696 9.09174 2.19022C6.55868 3.08888 9.36821 6.55736 9.63983 7.90655C9.67236 8.06812 2.76571 7.12538 2.40268 9.12883" stroke="white" stroke-width="3.35928" stroke-linecap="round"/>
</svg>
