<svg width="53" height="37" viewBox="0 0 53 37" fill="none" xmlns="http://www.w3.org/2000/svg">
<path d="M21.3888 35.4661C22.4812 31.5754 23.4014 26.5761 23.4014 22.5138C23.4014 19.2294 22.6344 15.4294 18.9608 14.1277C12.3303 11.7782 13.6257 20.0155 13.6257 23.6479" stroke="white" stroke-width="2.0267" stroke-linecap="round"/>
<path d="M15.1694 15.3867C9.00195 16.0758 9.13303 16.8751 9.13303 20.7322C9.13303 21.3451 9.17809 23.229 9.13303 23.1951" stroke="white" stroke-width="2.0267" stroke-linecap="round"/>
<path d="M9.13281 17.2011C11.2173 14.1815 12.0122 10.9258 16.7726 10.9258C19.4772 10.9258 22.2913 11.9759 24.2296 13.6713C27.1313 16.2091 25.8738 18.2411 25.8738 21.6462C25.8738 24.3581 25.5749 27.0604 25.5749 29.8826C25.5749 31.0256 25.3517 32.0248 25.276 33.151C25.2386 33.7059 25.276 36.2253 25.276 35.2428" stroke="white" stroke-width="2.0267" stroke-linecap="round"/>
<path d="M5.88472 11.7504C5.40707 11.7012 0.0185207 11.2467 2.7868 12.6269C3.77153 13.1178 5.22582 12.872 6.27928 12.6655C7.6661 12.3937 6.66189 10.5278 5.15408 11.0028C3.3142 11.5824 0.523695 13.1427 4.29193 13.6967C5.95295 13.9408 6.3183 11.6 5.09562 12.6784" stroke="white" stroke-width="2.0267" stroke-linecap="round"/>
<path d="M27.2422 9.53238C32.2026 9.1176 37.152 8.46503 42.0374 8.77709C44.1039 8.90908 46.9449 8.6164 48.7423 9.47745C51.9868 11.0317 53.2579 18.2823 50.1756 20.4086" stroke="white" stroke-width="2.0267" stroke-linecap="round"/>
<path d="M37.6036 10.1342C38.2177 13.4095 38.735 16.1315 38.3702 19.3634C38.1485 21.3281 37.3345 23.2911 36.9527 25.2456C36.3009 28.5831 36.6407 31.5221 36.8225 34.7454C36.9518 37.0366 37.7381 33.1883 37.8785 32.5663C38.1696 31.276 38.2919 29.7019 38.7753 28.4644C38.9945 27.9032 41.1856 20.5749 42.4926 23.921C43.7293 27.087 40.8468 30.9894 42.1599 33.8339C43.0039 35.662 42.461 34.7273 43.7944 32.8084C44.9125 31.1994 45.3232 29.0618 45.7327 27.1968C46.4756 23.8133 44.5447 20.2817 43.7221 17.0418C43.3536 15.5906 43.5919 13.8789 43.5919 12.3845C43.5919 11.1992 43.9849 8.20438 43.0712 10.9033" stroke="white" stroke-width="2.0267" stroke-linecap="round"/>
<path d="M39.8453 2.73331C40.8183 10.9946 45.6679 1.21919 39.6136 3.61154C37.7966 4.32956 36.44 6.27457 39.4151 6.27457C41.589 6.27457 43.513 4.54342 43.1045 2.61999C42.5521 0.0184955 36.5928 6.47312 39.4151 6.03376C39.8323 5.96882 41.8058 4.74866 40.9041 4.31979C38.5025 3.17744 39.1277 6.85895 39.5475 7.57774" stroke="white" stroke-width="2.0267" stroke-linecap="round"/>
</svg>
