<svg width="34" height="42" viewBox="0 0 34 42" fill="none" xmlns="http://www.w3.org/2000/svg">
<path d="M12.4052 17.6758C9.25249 17.9026 -0.873074 19.3045 2.7863 25.2434C4.193 27.5264 5.81252 27.9643 8.07668 28.539C11.7848 29.48 16.7486 28.3232 20.1003 26.464C26.6817 22.8133 15.7733 15.1115 10.9623 18.7743" stroke="white" stroke-width="3.35928" stroke-linecap="round"/>
<path d="M10.9609 32.2344C11.8017 34.707 13.2005 37.409 13.2005 40.0727" stroke="white" stroke-width="3.35928" stroke-linecap="round"/>
<path d="M6.47656 35.5918C9.42893 35.5918 12.4542 35.5918 15.4347 35.5918" stroke="white" stroke-width="3.35928" stroke-linecap="round"/>
<path d="M20.3942 12C12.8959 12.99 10.9609 13.3773 10.9609 20.2702C10.9609 23.1071 19.2488 22.9883 21.1279 23.237C24.6755 23.7064 29.2083 19.6757 28.858 15.9907C28.5535 12.7875 20.4172 9.11825 18.9793 12" stroke="white" stroke-width="3.35928" stroke-linecap="round"/>
<path d="M25.5156 12.0772C26.2319 10.7903 31.1144 4.89735 31.1144 3.11914" stroke="white" stroke-width="3.35928" stroke-linecap="round"/>
<path d="M31.1118 2C30.5797 2.19657 19.4393 5.35928 24.6644 5.35928" stroke="white" stroke-width="3.35928" stroke-linecap="round"/>
<path d="M32.2344 3.11914C32.2344 3.59203 32.2344 10.9575 32.2344 10.9575" stroke="white" stroke-width="3.35928" stroke-linecap="round"/>
</svg>
