<svg width="43" height="11" viewBox="0 0 43 11" fill="none" xmlns="http://www.w3.org/2000/svg">
<path d="M7.83408 1.77263C7.2234 1.68567 1.43517 0.14282 1.43517 2.05986C1.43517 2.38594 1.65776 2.93033 1.9458 3.09709C3.03476 3.72753 4.32586 3.96045 5.36068 4.67687C6.79588 5.67047 8.48408 6.90883 6.54153 8.34707C5.18272 9.35311 1.56185 9.30225 0.796875 7.51728" stroke="white" stroke-width="1.5" stroke-linecap="round"/>
<path d="M10.2734 1.19727C10.2734 3.58821 10.2734 5.97916 10.2734 8.37011C10.2734 9.0054 10.3473 7.77394 10.3612 7.69192C10.5501 6.5798 11.1639 4.0286 12.4596 3.52704C13.8762 2.97869 15.2345 6.22142 15.292 7.28501C15.3194 7.79225 15.3 9.31691 15.3 8.80893" stroke="white" stroke-width="1.5" stroke-linecap="round"/>
<path d="M22.0542 4.50195C20.4671 5.23615 17.275 6.45478 18.9186 8.71471C19.3915 9.36504 20.665 9.90757 21.4478 9.5764C22.6147 9.08273 22.5084 6.58966 22.485 5.53919C22.4635 4.56883 21.7772 4.24319 22.5169 5.25195C23.3808 6.42993 23.6337 8.15387 25.2137 8.3796" stroke="white" stroke-width="1.5" stroke-linecap="round"/>
<path d="M26.6484 3.63885C26.8849 5.00472 27.5856 9.06096 27.6458 7.67607C27.6665 7.19883 27.7546 6.74983 27.7894 6.2798C27.8553 5.38995 27.8475 4.72037 28.1564 3.86225C28.4765 2.97311 29.2746 2.97433 29.808 3.70268C30.8637 5.1441 30.8777 7.08252 30.7016 8.77713C30.5322 10.408 30.9852 8.1053 31.0287 7.65213C31.1839 6.03856 30.8018 4.28533 32.0979 3.03247C34.6514 0.564124 34.5896 8.80059 35.9835 8.52181" stroke="white" stroke-width="1.5" stroke-linecap="round"/>
<path d="M37.9928 6.5111C39.2839 5.7174 43.2517 4.18008 41.0965 2.44197C40.5857 2.03003 39.8565 1.94796 39.2295 2.13878C37.9941 2.51474 37.2732 4.08745 37.163 5.25047C36.9907 7.06934 37.8177 7.99315 39.5167 8.52173C40.616 8.86374 41.1975 8.37811 42.1576 8.37811" stroke="white" stroke-width="1.5" stroke-linecap="round"/>
</svg>
