<svg width="59" height="14" viewBox="0 0 59 14" fill="none" xmlns="http://www.w3.org/2000/svg">
<path d="M7.27938 5.26414C6.19099 4.8696 3.46492 3.28404 2.50747 4.69501C2.23483 5.0968 2.21462 5.62556 2.2054 6.09594C2.19229 6.76443 2.51501 7.30194 3.17291 7.49687C4.3186 7.83633 5.52876 7.84504 6.60956 8.42498C7.92439 9.1305 9.45216 11.9015 6.86786 11.7785C4.91349 11.6854 3.10045 10.8527 1.13281 11.0167" stroke="white" stroke-width="1.5" stroke-linecap="round"/>
<path d="M10.8203 7.94336C10.8247 8.06081 11.0035 11.9623 10.8991 11.9623" stroke="white" stroke-width="1.5" stroke-linecap="round"/>
<path d="M9.64062 2.97987C9.71209 3.61118 10.0183 6.19623 11.3699 5.36145C11.6978 5.15895 12.442 4.27276 12.3812 3.8642C12.2729 3.13718 10.5342 2.98879 10.0346 2.82227" stroke="white" stroke-width="1.5" stroke-linecap="round"/>
<path d="M14.6877 2.26953C14.568 5.16582 14.7912 8.12555 14.3813 10.9947C14.3588 11.152 14.191 12.6405 14.3725 12.2774" stroke="white" stroke-width="1.5" stroke-linecap="round"/>
<path d="M17.2027 6.8406C15.7357 6.74225 14.1739 6.52539 12.7109 6.52539" stroke="white" stroke-width="1.5" stroke-linecap="round"/>
<path d="M18.8632 6.91992C18.8502 8.27778 18.421 10.6238 19.2616 11.8626C19.3798 12.0369 19.7126 12.5122 19.9839 12.4623C20.6248 12.3446 21.1686 11.0144 21.4243 10.5142C21.9489 9.48765 21.7001 8.26991 21.7001 7.15633" stroke="white" stroke-width="1.5" stroke-linecap="round"/>
<path d="M28.3176 7.62888C27.7133 7.30932 26.7398 6.57592 25.9886 6.85837C25.6293 6.99345 25.2186 7.36709 24.9423 7.62888C24.48 8.06683 24.0588 8.82927 24.1761 9.48511C24.323 10.3058 24.8767 11.2066 25.5333 11.7135C26.2094 12.2354 27.7322 12.0585 28.3395 11.4201C29.1891 10.527 28.8692 6.52753 28.8692 7.76022C28.8692 8.4433 29.0692 9.01607 29.2457 9.66899C29.4653 10.4809 29.5724 11.3123 29.8149 12.1206" stroke="white" stroke-width="1.5" stroke-linecap="round"/>
<path d="M32.3366 2.34961C32.4519 5.39258 32.7973 8.59814 32.4942 11.6483C32.4805 11.7868 32.4375 12.7626 32.2578 12.6727" stroke="white" stroke-width="1.5" stroke-linecap="round"/>
<path d="M35.4883 5.81722C33.6772 5.66995 31.8626 5.49157 30.0466 5.41008C29.9094 5.40392 29.7264 5.38615 29.5781 5.42321" stroke="white" stroke-width="1.5" stroke-linecap="round"/>
<path d="M37.2228 6.05273C37.1806 8.16507 37.1974 10.1073 36.75 12.1205" stroke="white" stroke-width="1.5" stroke-linecap="round"/>
<path d="M37.8509 1.4037C37.5783 1.54206 35.1977 2.40909 35.5131 3.09357C35.6912 3.48005 36.3483 3.78689 36.7389 3.87283C37.2579 3.98701 37.6204 3.98888 37.9122 3.53136C38.4399 2.70388 38.5057 1.24609 37.2205 1.24609" stroke="white" stroke-width="1.5" stroke-linecap="round"/>
<path d="M43.1309 6.13086C42.1469 6.31917 39.1609 6.46192 39.344 8.10967C39.4031 8.64186 39.7834 9.10054 40.0226 9.56313C40.7586 10.9869 41.6865 12.0619 43.3235 11.1873C45.4832 10.0335 45.1992 6.83266 42.7369 6.52487" stroke="white" stroke-width="1.5" stroke-linecap="round"/>
<path d="M46.2812 5.42188C46.4783 7.24012 46.8863 9.19451 46.7497 11.0387C46.7393 11.179 46.6753 11.2875 46.6753 11.0956C46.6753 10.4421 46.5876 9.88195 46.7584 9.23065C46.9736 8.4104 47.6016 5.28377 48.9649 5.72833C49.934 6.04433 50.4919 7.47071 50.7029 8.34631C50.9927 9.54879 51.2472 10.7059 51.6398 11.8837" stroke="white" stroke-width="1.5" stroke-linecap="round"/>
<path d="M57.3989 6.68339C56.4099 6.42916 52.625 4.93547 53.1611 7.30943C53.4414 8.55062 55.594 8.78853 56.5671 9.27511C57.4963 9.7397 57.0173 10.4775 56.5321 11.1664C55.7612 12.2607 54.2171 12.2335 53.1436 11.6479" stroke="white" stroke-width="1.5" stroke-linecap="round"/>
</svg>
