<svg width="33" height="13" viewBox="0 0 33 13" fill="none" xmlns="http://www.w3.org/2000/svg">
<path d="M8.15158 5.16604C7.17782 4.79509 1.64096 1.67791 1.64096 4.74051C1.64096 6.17167 3.72923 6.41995 4.78989 6.93199C5.92195 7.4785 9.03003 9.93504 6.4069 11.0171C5.40935 11.4286 1.60211 11.2354 0.875 10.1447" stroke="white" stroke-width="1.5" stroke-linecap="round"/>
<path d="M11.7892 6.69727C11.6523 8.31253 11.5977 9.88588 11.5977 11.4845C11.5977 11.7714 11.6573 11.9334 11.4062 12.059" stroke="white" stroke-width="1.5" stroke-linecap="round"/>
<path d="M13.5164 2.29338C7.90005 4.89731 13.6461 4.74578 14.1334 3.82528C14.8166 2.53489 12.9419 0.189297 12.9419 2.29338" stroke="white" stroke-width="1.5" stroke-linecap="round"/>
<path d="M14.8594 6.12341C16.7978 6.05228 22.6182 6.12341 20.6785 6.12341C20.1638 6.12341 19.572 6.71776 19.2636 7.07022C18.1576 8.33419 16.4554 9.423 15.6679 10.9106C15.2215 11.7539 17.6874 10.9106 18.3062 10.9106C19.3267 10.9106 20.249 10.9106 21.1785 10.9106" stroke="white" stroke-width="1.5" stroke-linecap="round"/>
<path d="M25.3899 8.61243C25.7962 8.4839 32.0565 7.07344 29.6026 5.84648C28.9735 5.53194 28.1884 5.32145 27.4962 5.20819C25.8887 4.94514 24.9689 5.78059 24.5494 7.27201C23.5033 10.9916 29.5875 12.7959 32.0919 11.2933" stroke="white" stroke-width="1.5" stroke-linecap="round"/>
</svg>
