<svg width="44" height="44" viewBox="0 0 44 44" fill="none" xmlns="http://www.w3.org/2000/svg">
<path d="M19.5556 44V39.1111H24.4444V44H19.5556ZM19.5556 4.88889V4.15016e-06H24.4444V4.88889H19.5556ZM29.3333 44V39.1111H34.2222V44H29.3333ZM29.3333 4.88889V4.15016e-06H34.2222V4.88889H29.3333ZM34.65 24.4444H22C21.3074 24.4444 20.7264 24.2098 20.2571 23.7404C19.7878 23.2711 19.5539 22.691 19.5556 22C19.5556 21.3074 19.7902 20.7264 20.2596 20.2571C20.7289 19.7878 21.309 19.5539 22 19.5556H34.65L32.45 17.3556C32.0019 16.9074 31.7778 16.3468 31.7778 15.6738C31.7778 15.0007 32.0222 14.4206 32.5111 13.9333C32.9593 13.4852 33.5296 13.2611 34.2222 13.2611C34.9148 13.2611 35.4852 13.4852 35.9333 13.9333L42.2889 20.2889C42.7778 20.7778 43.0222 21.3481 43.0222 22C43.0222 22.6519 42.7778 23.2222 42.2889 23.7111L35.9333 30.0667C35.4852 30.5148 34.9246 30.7495 34.2516 30.7707C33.5785 30.7919 32.9984 30.5572 32.5111 30.0667C32.063 29.6185 31.8389 29.0481 31.8389 28.3556C31.8389 27.663 32.063 27.0926 32.5111 26.6444L34.65 24.4444ZM4.88889 39.1111H9.77778V4.88889H4.88889V39.1111ZM4.88889 44C3.54445 44 2.39311 43.5209 1.43489 42.5627C0.47667 41.6044 -0.00162548 40.4539 4.15016e-06 39.1111V4.88889C4.15016e-06 3.54445 0.479115 2.39311 1.43734 1.43489C2.39556 0.47667 3.54608 -0.00162548 4.88889 4.15016e-06H9.77778C11.1222 4.15016e-06 12.2736 0.479115 13.2318 1.43734C14.19 2.39556 14.6683 3.54608 14.6667 4.88889V39.1111C14.6667 40.4556 14.1876 41.6069 13.2293 42.5651C12.2711 43.5233 11.1206 44.0016 9.77778 44H4.88889ZM39.1111 4.88889V4.15016e-06C40.4556 4.15016e-06 41.6069 0.479115 42.5651 1.43734C43.5233 2.39556 44.0016 3.54608 44 4.88889H39.1111ZM39.1111 44V39.1111H44C44 40.4556 43.5209 41.6069 42.5627 42.5651C41.6044 43.5233 40.4539 44.0016 39.1111 44Z" fill="white" fill-opacity="0.43"/>
</svg>
