<svg width="56" height="13" viewBox="0 0 56 13" fill="none" xmlns="http://www.w3.org/2000/svg">
<path d="M8.30283 1.06774C6.61948 1.13079 3.72421 0.601983 2.59009 2.21667C2.34423 2.5667 1.83801 3.25375 2.36668 3.58103C4.09678 4.65204 6.16342 5.16093 7.84006 6.30974C10.2443 7.95707 7.94874 8.53124 5.95709 8.7592C4.39721 8.93774 1.79311 9.08947 1.26562 7.24325" stroke="white" stroke-width="1.5" stroke-linecap="round"/>
<path d="M12.0391 1.06836C12.1211 3.18518 12.7893 6.38118 12.1827 8.5045C12.1061 8.77255 12.0465 8.2865 12.0391 8.24918" stroke="white" stroke-width="1.5" stroke-linecap="round"/>
<path d="M15.3421 3.36627L10.1719 3.22266" stroke="white" stroke-width="1.5" stroke-linecap="round"/>
<path d="M16.631 4.51562C16.6294 4.54106 16.3438 10.3885 16.3438 7.8188" stroke="white" stroke-width="1.5" stroke-linecap="round"/>
<path d="M17.2109 5.80689L19.6524 5.23242" stroke="white" stroke-width="1.5" stroke-linecap="round"/>
<path d="M24.3911 4.51607C23.4457 5.53794 20.7704 7.51357 22.8911 8.53733C24.2327 9.185 24.2928 8.12783 24.5347 6.98946C24.705 6.18806 24.7459 3.75477 24.4868 4.53203C24.2194 5.33424 25.2988 7.0149 25.6597 7.68361C26.143 8.57922 26.2975 8.69831 27.2634 8.53733" stroke="white" stroke-width="1.5" stroke-linecap="round"/>
<path d="M28.6953 1.64258C29.1377 4.0759 29.5406 6.53777 29.8443 8.96702" stroke="white" stroke-width="1.5" stroke-linecap="round"/>
<path d="M31.9983 4.8031L26.8281 3.94141" stroke="white" stroke-width="1.5" stroke-linecap="round"/>
<path d="M32.4297 6.67019C32.6297 6.50395 35.5052 4.56171 34.4563 4.03722C34.1467 3.88243 33.922 4.01846 33.6424 4.16488C32.9002 4.55366 32.8444 5.54432 32.8605 6.28721C32.8794 7.15392 33.8099 7.81112 34.5041 8.17018C35.7571 8.81829 36.4424 8.4009 37.4563 7.53189" stroke="white" stroke-width="1.5" stroke-linecap="round"/>
<path d="M41.3397 5.08984C41.0739 5.25096 37.7727 6.82324 39.0499 7.49941C39.5529 7.76574 40.285 7.71758 40.8211 7.58717C41.5299 7.41476 41.6979 6.78403 41.6828 6.11909C41.6759 5.81569 41.5197 4.9322 41.6429 5.20952C42.4075 6.92969 42.7758 9.74117 41.2759 11.1696C39.6068 12.7593 37.9484 11.9797 37.0312 10.26" stroke="white" stroke-width="1.5" stroke-linecap="round"/>
<path d="M44.4982 4.51562C44.5054 5.80888 44.6418 7.10812 44.6418 8.39327C44.6418 8.86783 44.5331 8.66174 44.2109 8.39327" stroke="white" stroke-width="1.5" stroke-linecap="round"/>
<path d="M47.3653 5.66445C47.8286 5.22082 49.6135 3.99014 48.2988 3.59C47.7795 3.43194 47.5127 3.54243 47.1897 3.97297C46.4378 4.97554 45.9559 5.81279 46.4318 7.02881C47.3642 9.41167 49.6045 9.34603 50.2376 6.81339" stroke="white" stroke-width="1.5" stroke-linecap="round"/>
<path d="M54.9797 4.2277C54.5019 4.15337 51.4461 3.31899 51.2457 4.37131C51.2095 4.56127 51.2823 4.71429 51.4531 4.80216C52.3141 5.24495 53.5774 5.38353 54.0302 6.38992C54.4479 7.31804 53.2215 8.4533 52.3866 8.57608C51.3203 8.73289 50.5941 7.5974 49.9531 6.95641" stroke="white" stroke-width="1.5" stroke-linecap="round"/>
<path d="M45.0698 0.923828C44.6271 1.57841 43.1558 3.07807 44.6389 3.07807C45.1116 3.07807 45.2954 2.90674 45.5325 2.50361C46.2522 1.28025 45.0176 1.46172 44.2081 1.78553" stroke="white" stroke-linecap="round"/>
</svg>
