<svg width="51" height="15" viewBox="0 0 51 15" fill="none" xmlns="http://www.w3.org/2000/svg">
<path d="M8.30109 2.49954C7.76424 2.36971 0.639221 0.453498 1.66297 3.37853C2.02534 4.41391 3.5718 4.84308 4.46167 5.21386C5.40108 5.60528 8.72161 7.22559 7.2463 8.7931C6.18795 9.91761 3.13391 8.64364 2.09894 7.81567" stroke="white" stroke-width="1.5" stroke-linecap="round"/>
<path d="M10.0703 5.53711C10.4115 6.1906 11.3622 9.03559 12.6299 8.53271C13.0477 8.36697 13.6215 7.89873 13.7832 7.46385C13.9456 7.02706 13.677 6.54831 13.4878 6.16998" stroke="white" stroke-width="1.5" stroke-linecap="round"/>
<path d="M16.2734 5.53711C16.4179 8.10136 16.6532 10.6873 16.6532 13.2581" stroke="white" stroke-width="1.5" stroke-linecap="round"/>
<path d="M16.5282 5.79102C16.7256 5.88171 21.3562 7.59125 20.3043 8.36469C19.8751 8.68029 19.3188 8.71439 18.8065 8.6741C17.9131 8.60383 17.0471 8.44908 16.1484 8.44908" stroke="white" stroke-width="1.5" stroke-linecap="round"/>
<path d="M22.9844 4.77734C23.2133 7.39592 23.4846 9.94773 23.3571 12.5617C23.3435 12.839 23.4022 13.7896 22.9844 13.511" stroke="white" stroke-width="1.5" stroke-linecap="round"/>
<path d="M23.4892 5.66406C23.8607 5.85587 28.5332 7.71794 27.3286 8.84952C26.9219 9.23156 26.2566 9.20293 25.7394 9.20815C24.6468 9.21919 23.5682 9.08157 22.4766 9.08157" stroke="white" stroke-width="1.5" stroke-linecap="round"/>
<path d="M29.9453 2.24609C30.096 4.6449 30.325 7.05503 30.325 9.46084" stroke="white" stroke-width="1.5" stroke-linecap="round"/>
<path d="M34.1188 5.41016C34.0769 6.71323 33.9922 8.2004 33.9922 9.46053" stroke="white" stroke-width="1.5" stroke-linecap="round"/>
<path d="M34.6251 1.73961C34.5779 1.83763 33.5384 3.57369 34.1399 3.44836C34.5207 3.36904 34.8786 3.34303 35.2299 3.16006C35.502 3.01834 36.1236 2.88774 36.144 2.49906C36.1961 1.51011 36.2334 1.00888 35.0049 1.35989" stroke="white" stroke-width="1.5" stroke-linecap="round"/>
<path d="M37.4104 7.30996C37.6543 7.21111 42.0988 5.83089 41.4327 5.03162C40.981 4.48955 39.8394 4.70457 39.2528 4.77847C38.4329 4.88177 38.0952 5.34364 37.6917 6.01608C37.2952 6.67699 36.5751 7.63106 37.2839 8.32255C38.0259 9.04648 39.5308 9.88658 40.5748 9.5883" stroke="white" stroke-width="1.5" stroke-linecap="round"/>
<path d="M50.0742 5.40987C49.6179 5.36962 44.4373 4.41021 44.1533 5.33955C44.051 5.6744 44.3003 5.99855 44.5612 6.16932C45.7869 6.97165 47.2497 7.05946 48.4217 8.01168C49.8283 9.15454 48.7866 9.38435 47.5427 9.46729C45.7127 9.58929 44.0574 9.49318 42.2266 9.20711" stroke="white" stroke-width="1.5" stroke-linecap="round"/>
</svg>
