<svg width="54" height="15" viewBox="0 0 54 15" fill="none" xmlns="http://www.w3.org/2000/svg">
<path d="M8.38772 2.37321C6.66807 2.07808 3.83114 1.0522 2.26995 2.37321C1.94037 2.65208 1.64558 3.06193 1.3558 3.3858C0.432598 4.41761 3.76918 5.6942 4.3303 5.96651C4.84689 6.21721 8.14579 7.04173 7.59311 8.05499C7.22998 8.72072 5.61589 8.90929 4.98427 8.9832C3.89072 9.11117 2.92836 8.86375 1.93242 8.44878" stroke="white" stroke-width="1.5" stroke-linecap="round"/>
<path d="M11.2969 5.2832C11.3214 5.40467 11.8485 9.4299 12.6048 9.12263C12.8511 9.02257 13.073 8.39024 13.1955 8.16629C13.6248 7.38132 13.6839 6.91219 13.5752 6.04265" stroke="white" stroke-width="1.5" stroke-linecap="round"/>
<path d="M20.5428 5.91672C20.3613 5.923 14.2248 5.78818 16.6049 6.83087C17.6744 7.29943 18.76 7.71161 19.3473 8.79981C20.0076 10.0233 15.2042 8.77767 14.5938 8.70136" stroke="white" stroke-width="1.5" stroke-linecap="round"/>
<path d="M23.7033 5.79102C22.9971 8.05088 21.9313 10.4468 21.9313 12.8581C21.9313 13.0739 21.9232 13.6063 21.8047 13.1323" stroke="white" stroke-width="1.5" stroke-linecap="round"/>
<path d="M23.7064 6.16992C24.2776 6.28216 31.01 7.54596 27.8412 9.13036C26.1208 9.99056 24.0057 9.66865 22.1875 9.46085" stroke="white" stroke-width="1.5" stroke-linecap="round"/>
<path d="M30.7925 7.94152C31.0648 7.76084 34.8259 5.7271 33.6896 4.94593C33.2747 4.66069 32.807 4.88272 32.3817 5.00218C31.4829 5.25467 29.9152 5.3414 30.1104 6.66875C30.2348 7.51446 30.7628 8.27751 31.355 8.86973C32.0424 9.55708 33.5581 8.81392 34.3366 8.57439" stroke="white" stroke-width="1.5" stroke-linecap="round"/>
<path d="M42.3145 5.1582C41.391 5.32807 36.6034 5.51536 37.3429 7.56312C37.5755 8.20712 38.3163 8.66532 38.9532 8.82886C39.9523 9.08539 41.0839 8.98157 42.0613 8.70229" stroke="white" stroke-width="1.5" stroke-linecap="round"/>
<path d="M45.2203 1.99219C45.2203 4.47172 45.5046 7.12181 45.0938 9.58665" stroke="white" stroke-width="1.5" stroke-linecap="round"/>
<path d="M47.6255 4.27111L41.9297 4.14453" stroke="white" stroke-width="1.5" stroke-linecap="round"/>
<path d="M52.6879 5.2832C52.1573 5.29121 46.3811 5.38521 49.4392 6.43644C50.2761 6.72413 52.2308 7.11875 52.7301 7.96939C53.459 9.21113 48.8333 8.88993 48.2578 8.95386" stroke="white" stroke-width="1.5" stroke-linecap="round"/>
</svg>
