<svg width="45" height="11" viewBox="0 0 45 11" fill="none" xmlns="http://www.w3.org/2000/svg">
<path d="M9.29135 2.05946C6.97128 1.83494 4.13442 1.16621 1.77543 1.48499C1.68334 1.49744 1.67969 1.63588 1.67969 1.48499" stroke="white" stroke-width="1.5" stroke-linecap="round"/>
<path d="M11.8772 4.93164C10.888 5.42375 7.19218 7.07662 9.14852 8.69759C9.57995 9.05506 9.92604 9.09652 10.473 9.09652C11.7236 9.09652 11.8955 8.26911 11.8772 7.1178C11.8726 6.826 11.4004 4.68478 11.6219 5.68164C11.8324 6.62872 12.4348 7.70864 13.0262 8.45823C13.3109 8.81911 14.3239 9.99443 14.1751 8.9529" stroke="white" stroke-width="1.5" stroke-linecap="round"/>
<path d="M15.4688 1.05469C18.0993 18.3882 14.2434 4.90923 18.2613 3.99085C20.5428 3.46936 22.3122 7.8094 20.1443 8.95359C19.3367 9.37981 16.274 10.1333 15.756 9.09721" stroke="white" stroke-width="1.5" stroke-linecap="round"/>
<path d="M27.0999 5.07538C25.063 5.08503 23.4187 5.23968 23.0946 7.59665C22.9932 8.33402 23.1107 9.15473 23.7568 9.59132C24.7513 10.2632 25.7553 10.1116 26.7329 9.49557C27.8978 8.76149 28.2472 7.50788 27.8659 6.18442C27.7053 5.6272 27.4864 4.64453 26.8127 4.64453" stroke="white" stroke-width="1.5" stroke-linecap="round"/>
<path d="M34.1391 4.50101C33.3913 5.20342 29.0063 8.48131 31.6018 9.59939C32.165 9.84198 33.0315 9.91769 33.6444 9.79088C34.6643 9.57987 35.4995 7.95693 35.5114 6.99036C35.5335 5.19997 34.748 3.73839 32.8465 4.21378" stroke="white" stroke-width="1.5" stroke-linecap="round"/>
<path d="M43.3254 4.78767C42.3549 4.52968 37.8276 2.58334 37.0063 4.06958C36.7852 4.46967 36.595 4.90293 36.9744 5.28235C38.2376 6.54553 40.8572 6.15686 41.8733 7.81957C43.7025 10.8128 37.8897 10.4321 36.8627 8.37808" stroke="white" stroke-width="1.5" stroke-linecap="round"/>
<path d="M5.41522 1.62891C5.29233 4.14059 5.128 6.65329 5.128 9.16877C5.128 10.1091 5.08506 9.46416 4.98438 8.80972" stroke="white" stroke-width="1.5" stroke-linecap="round"/>
</svg>
