<svg width="57" height="13" viewBox="0 0 57 13" fill="none" xmlns="http://www.w3.org/2000/svg">
<path d="M5.02508 2.40039C4.57456 5.44141 4.125 8.35053 4.125 11.4012" stroke="white" stroke-width="1.5" stroke-linecap="round"/>
<path d="M9.2226 3.00045C7.66878 3.00045 2.52112 4.04928 1.42188 2.40039" stroke="white" stroke-width="1.5" stroke-linecap="round"/>
<path d="M8.62226 8.09993C8.97658 8.00507 14.9047 6.93236 12.506 5.58303C12.0687 5.33709 11.2299 5.12502 10.7225 5.09965C9.4705 5.03705 9.12217 5.47134 8.48891 6.46644C6.38623 9.77062 11.5989 11.7121 14.0228 10.5002" stroke="white" stroke-width="1.5" stroke-linecap="round"/>
<path d="M16.125 4.80078C18.0914 17.8284 15.0046 5.40083 18.5252 5.40083C22.0239 5.40083 20.9254 8.39896 20.9254 10.5013" stroke="white" stroke-width="1.5" stroke-linecap="round"/>
<path d="M24.8281 2.40039C24.8419 2.74743 25.1052 11.1012 25.1282 11.1012" stroke="white" stroke-width="1.5" stroke-linecap="round"/>
<path d="M29.9226 4.50044C27.4401 4.27604 24.9205 3.90039 22.4219 3.90039" stroke="white" stroke-width="1.5" stroke-linecap="round"/>
<path d="M33.524 6.30106C31.5647 6.2363 28.4081 5.59845 29.0236 8.36793C29.1265 8.83105 29.4891 9.59332 29.9237 9.83473C30.6646 10.2464 32.0543 9.57603 32.3239 8.83464C32.7378 7.69638 32.3239 7.20802 32.3239 6.18439C32.3239 5.76034 32.7629 6.91007 32.9906 7.26782C33.6582 8.31693 34.5484 9.23177 35.3242 10.2014" stroke="white" stroke-width="1.5" stroke-linecap="round"/>
<path d="M37.4297 2.69922L38.9298 10.1999" stroke="white" stroke-width="1.5" stroke-linecap="round"/>
<path d="M41.9257 5.40008C39.9253 5.10188 33.9026 4.5 35.9252 4.5" stroke="white" stroke-width="1.5" stroke-linecap="round"/>
<path d="M43.7272 5.40039C43.6374 6.93823 43.6279 8.41206 43.7272 9.90082" stroke="white" stroke-width="1.5" stroke-linecap="round"/>
<path d="M43.6285 1.41111C43.398 1.8413 42.7829 2.62144 43.2869 3.0839C43.4836 3.2643 43.8944 3.50371 44.1803 3.45174C44.6309 3.3698 44.7892 2.93597 44.9247 2.55403C45.143 1.93881 44.5517 1.08467 43.9438 1.48993" stroke="white" stroke-width="1.5" stroke-linecap="round"/>
<path d="M46.4609 4.64258C46.6995 6.29092 46.9267 7.94139 47.2141 9.58212C47.2266 9.65355 47.2207 9.83723 47.2667 9.90617C47.4198 10.1359 47.501 10.0531 47.6914 9.82735C48.771 8.54783 48.5487 6.79671 49.9291 5.66727" stroke="white" stroke-width="1.5" stroke-linecap="round"/>
<path d="M52.691 8.18919C52.9527 7.74465 54.8957 5.30768 53.6106 4.9706C53.2983 4.88869 52.9852 4.85677 52.6735 4.95746C52.149 5.12691 51.7383 5.76448 51.6838 6.29745C51.5772 7.33994 52.1921 8.85866 53.2427 9.19636C53.976 9.43205 54.7745 9.61482 55.5286 9.76564" stroke="white" stroke-width="1.5" stroke-linecap="round"/>
</svg>
