<svg width="44" height="38" viewBox="0 0 44 38" fill="none" xmlns="http://www.w3.org/2000/svg">
<path d="M21.5012 4.19153C16.7409 2.66464 12.8468 0.475152 9.14164 4.0405C7.502 5.61825 5.38185 6.94219 4.19779 8.79773C1.41349 13.1611 2.01852 17.061 2.13787 21.7857C2.39809 32.0875 19.6697 40.268 29.9698 33.1502C34.2482 30.1936 39.9732 25.2753 41.185 20.5775C42.1563 16.8122 40.0797 11.9204 38.0722 8.60894C36.0954 5.34811 32.4841 3.78304 28.2303 3.09661C23.9338 2.40328 21.1108 0.82045 17.3814 3.51192" stroke="white" stroke-width="3.35928" stroke-linecap="round"/>
<path d="M21.3281 8.61914C22.0516 11.1794 22.7409 13.5435 22.7409 16.1707C22.7409 16.6216 23.0414 17.6758 22.7409 17.3991" stroke="white" stroke-width="3.35928" stroke-linecap="round"/>
<path d="M22.875 20.3867C26.4191 21.6266 30.3464 22.7238 33.3672 24.8766C33.7225 25.1298 35.2457 25.808 35.2457 25.4154" stroke="white" stroke-width="3.35928" stroke-linecap="round"/>
</svg>
