<svg width="37" height="33" viewBox="0 0 37 33" fill="none" xmlns="http://www.w3.org/2000/svg">
<path d="M4.23438 4.24023C5.37264 5.84803 6.23155 8.38321 8.71342 8.71928" stroke="white" stroke-width="3.35928" stroke-linecap="round"/>
<path d="M4.23438 2C4.95312 2.14268 10.4134 3.11976 9.78257 3.11976" stroke="white" stroke-width="3.35928" stroke-linecap="round"/>
<path d="M8.71875 2C9.74014 4.87082 10.0585 6.79516 12.078 8.71857" stroke="white" stroke-width="3.35928" stroke-linecap="round"/>
<path d="M13.0485 8.59812C16.1016 7.39301 19.2995 6.15464 22.4255 5.26594C24.0508 4.80386 25.5466 4.73464 27.1883 4.34034C30.5496 3.53303 32.4373 7.81566 33.9606 9.76436C37.3219 14.0644 23.1604 16.7376 20.2673 15.4291C18.4061 14.5873 15.2201 13.2631 13.216 13.2631C10.9644 13.2631 10.0799 16.2621 7.69026 16.2621C7.50232 16.2621 4.67816 16.927 5.51347 16.2621C6.13108 15.7705 6.81091 14.4401 7.35536 13.763C7.81808 13.1875 8.94437 11.9865 9.02982 11.2638C9.09736 10.6926 9.81418 10.2694 9.53216 9.76436C9.46926 9.65172 9.02982 8.41413 9.02982 8.93131" stroke="white" stroke-width="3.35928" stroke-linecap="round"/>
<path d="M13.2008 20.6298C10.7643 23.6808 7.45228 27.5103 2.64969 27.5103C0.526733 27.5103 4.23225 28.2681 4.86203 28.3911C6.61992 28.7345 7.70065 28.1944 9.45688 28.1086C10.1328 28.0756 10.8219 28.1086 11.499 28.1086C12.1792 28.1086 12.6192 27.5435 13.0496 27.5435C13.9181 27.5435 16.1297 28.7542 16.9448 29.0726C21.0162 30.6629 25.4162 31.2122 29.8784 31.1001C31.4467 31.0608 32.9189 29.9188 33.2631 28.5573C33.7011 26.825 32.4656 26.1945 31.2399 25.1171C29.1432 23.2742 27.025 23.023 24.0923 23.023C23.1141 23.023 18.9869 24.1378 18.9869 22.4247C18.9869 20.4911 18.872 17.1312 16.6044 16.076C15.0792 15.3663 13.5412 14.8231 13.5412 16.8738C13.5412 18.2033 12.3102 19.7547 13.2008 20.929" stroke="white" stroke-width="3.35928" stroke-linecap="round"/>
</svg>
