<svg width="34" height="12" viewBox="0 0 34 12" fill="none" xmlns="http://www.w3.org/2000/svg">
<path d="M1.04688 2.83594C1.30583 4.81855 1.04674 8.48733 2.06315 10.266C2.34334 10.7564 2.87208 9.78932 3.09072 9.54335C3.9547 8.57137 4.9047 7.52286 5.31523 6.29127" stroke="white" stroke-width="1.5" stroke-linecap="round"/>
<path d="M4.09375 5.27578C4.13016 5.33105 7.08913 10.2937 7.18775 10.2668C7.86787 10.0813 8.82422 7.38951 9.0622 6.7889C9.60387 5.42185 10.3564 3.09025 9.98814 1.61719" stroke="white" stroke-width="1.5" stroke-linecap="round"/>
<path d="M12.2266 6.69784C12.5497 6.59366 17.8195 5.45342 16.3594 4.25878C15.9157 3.89574 15.2819 3.66941 14.7108 3.64901C13.9502 3.62185 13.5896 4.56246 13.4348 5.2073C12.976 7.11881 12.2574 7.89185 14.0558 9.1369C15.7 10.2751 16.5067 10.3446 17.9177 8.93365" stroke="white" stroke-width="1.5" stroke-linecap="round"/>
<path d="M25.8407 5.07214C25.7646 5.0608 20.7575 4.08194 20.6464 4.50754C20.582 4.75462 22.0032 5.65038 22.1709 5.78354C22.9647 6.41394 23.8757 6.96878 24.4631 7.8048C25.5704 9.38054 23.3715 9.80209 22.1934 10.2439C20.4985 10.8794 19.522 10.8956 18.3203 9.54376" stroke="white" stroke-width="1.5" stroke-linecap="round"/>
<path d="M29.0938 2.42969C29.1289 3.06936 29.3645 7.32084 29.4099 8.25634C29.4252 8.57086 29.6297 10.0301 29.3873 10.5147C29.2829 10.7237 29.102 10.5682 29.297 10.7632" stroke="white" stroke-width="1.5" stroke-linecap="round"/>
<path d="M33.1605 4.25867C31.4716 4.04324 28.1338 2.8086 26.4531 3.64891" stroke="white" stroke-width="1.5" stroke-linecap="round"/>
</svg>
