<svg width="92" height="30" viewBox="0 0 92 30" fill="none" xmlns="http://www.w3.org/2000/svg">
  <path
    d="M24.5692 2.67232C22.7475 2.00117 19.8359 4.34133 19.8359 6.15997C19.8359 7.78349 21.2726 8.00849 22.5762 8.40204C24.4864 8.97869 25.6983 7.77446 26.1608 5.9247C26.4495 4.7698 24.5481 3.96436 23.8218 3.41967"
    stroke="white" stroke-width="2.5" stroke-linecap="round" />
  <path
    d="M58.1145 15.0214C58.6155 14.6665 59.2362 14.2408 58.4466 13.7896C56.5261 12.6922 53.4503 15.7225 52.4539 17.042C50.4701 19.6693 53.7681 23.2683 55.2496 25.1799C56.1019 26.2796 57.4527 26.9339 58.8618 26.8683C60.8175 26.7774 61.4048 23.386 61.7405 21.886C62.4966 18.5072 61.1752 15.3773 57.8654 14.274"
    stroke="white" stroke-width="3" stroke-linecap="round" />
  <path
    d="M88.8672 14.5209C86.8311 13.3203 81.4732 13.5091 79.7306 15.3075C77.909 17.1874 81.7741 18.7201 83.1061 19.0571C85.6085 19.6901 90.2487 20.0858 88.7197 23.8564C87.6255 26.5546 81.4883 27.8454 79.1696 26.6766"
    stroke="white" stroke-width="3" stroke-linecap="round" />
  <path d="M2.26298 2C2.26298 10.1491 1.51562 18.2615 1.51562 26.4136" stroke="white" stroke-width="3"
    stroke-linecap="round" />
  <path
    d="M3.26148 2.25181C2.93872 1.97516 3.51724 3.18945 3.56596 3.30364C4.44285 5.35884 5.38675 7.39297 6.19554 9.47624C6.35888 9.89696 7.98249 14.0071 8.36841 13.4068C9.43505 11.7476 10.3207 9.72787 11.2471 7.96768C11.636 7.22881 13.6823 2.82143 14.6656 2.86076C15.0524 2.87624 14.7209 15.9166 14.7209 17.8217C14.7209 20.6709 15.2192 23.6172 15.2192 26.4163"
    stroke="white" stroke-width="3" stroke-linecap="round" />
  <path
    d="M22.1945 14.207C22.051 16.7892 21.1399 19.3129 21.198 21.9851C21.2353 23.7043 21.6962 25.4477 21.6962 27.1612"
    stroke="white" stroke-width="3" stroke-linecap="round" />
  <path
    d="M29.9232 13.7096C29.6361 13.3815 29.7018 14.3223 29.7018 14.8583C29.7018 17.203 29.8788 19.5782 29.9232 21.9305C29.9536 23.5407 30.4215 25.064 30.4215 26.6637C30.4215 27.836 30.619 24.3163 30.5183 23.1484C30.3198 20.8455 29.8914 18.6352 29.9232 16.3115C29.9616 13.5124 33.3118 12.9127 35.4038 13.9587"
    stroke="white" stroke-width="3" stroke-linecap="round" />
  <path
    d="M40.1366 13.71C40.1366 17.2342 39.772 21.1089 40.3995 24.5605C40.6486 25.9302 40.6691 27.8527 40.6348 25.1141C40.5957 21.9852 39.8455 18.4042 41.6451 15.5922C43.6916 12.3946 46.074 13.3661 48.8557 14.9556"
    stroke="white" stroke-width="3" stroke-linecap="round" />
  <path
    d="M66.6955 14.2028C67.2065 14.7892 67.2258 15.2378 67.1689 16.0732C66.9337 19.5252 67.2483 22.94 67.4482 26.3788C67.6438 29.7414 67.9148 25.4613 67.8875 24.2128C67.85 22.4989 67.0464 15.9203 68.6839 14.8889C70.7994 13.5565 73.4786 14.1946 75.7061 14.5895"
    stroke="white" stroke-width="3" stroke-linecap="round" />
</svg>
